<svg xmlns="http://www.w3.org/2000/svg" viewBox="0 0 204.75 177.874">
  <defs>
    <style>
      .cls-1, .cls-10, .cls-4, .cls-6, .cls-8, .cls-9 {
        fill: none;
      }

      .cls-1, .cls-10 {
        stroke: #2bce72;
      }

      .cls-1, .cls-10, .cls-11, .cls-12, .cls-2, .cls-3, .cls-4, .cls-8, .cls-9 {
        stroke-miterlimit: 10;
      }

      .cls-1, .cls-8 {
        stroke-width: 1.376px;
      }

      .cls-2 {
        fill: #fff;
      }

      .cls-11, .cls-12, .cls-2, .cls-3 {
        stroke: #8c8c8c;
      }

      .cls-11, .cls-2, .cls-3 {
        stroke-width: 0.688px;
      }

      .cls-11, .cls-3, .cls-7 {
        fill: #2bce72;
      }

      .cls-4 {
        stroke: #fff;
        stroke-width: 0.351px;
      }

      .cls-5 {
        fill: #8c8c8c;
      }

      .cls-8, .cls-9 {
        stroke: #7dcbb5;
      }

      .cls-8 {
        opacity: 0.28;
      }

      .cls-9 {
        stroke-width: 1.032px;
        opacity: 0.25;
      }

      .cls-10 {
        stroke-width: 2.063px;
      }

      .cls-11 {
        stroke-linecap: round;
        stroke-dasharray: 49.177 1.719 2.751 1.719;
      }

      .cls-12 {
        fill: #020202;
        stroke-width: 0.25px;
      }
    </style>
  </defs>
  <g id="Group_1591" data-name="Group 1591" transform="translate(-0.012)">
    <circle id="Ellipse_299" data-name="Ellipse 299" class="cls-1" cx="70.676" cy="70.676" r="70.676" transform="translate(20.104 35.834)"/>
    <path id="Path_423" data-name="Path 423" class="cls-2" d="M140.491,43.706v59.062H23.5V43.706A9.188,9.188,0,0,1,32.706,34.5h98.72A9.159,9.159,0,0,1,140.491,43.706Z" transform="translate(9.493 14.364)"/>
    <path id="Path_424" data-name="Path 424" class="cls-3" d="M140.533,82.6V95.064a9.188,9.188,0,0,1-9.206,9.206H32.606A9.188,9.188,0,0,1,23.4,95.064V82.6Z" transform="translate(9.451 34.391)"/>
    <line id="Line_189" data-name="Line 189" class="cls-4" x1="3.116" y2="2.125" transform="translate(131.996 81.582)"/>
    <line id="Line_190" data-name="Line 190" class="cls-4" y1="3.258" transform="translate(113.867 80.449)"/>
    <circle id="Ellipse_300" data-name="Ellipse 300" class="cls-2" cx="5.099" cy="5.099" r="5.099" transform="translate(86.531 122.657)"/>
    <path id="Path_425" data-name="Path 425" class="cls-5" d="M51.763,52.1H37.6a1.636,1.636,0,0,1-1.7-1.7h0a1.636,1.636,0,0,1,1.7-1.7H51.763a1.636,1.636,0,0,1,1.7,1.7h0A1.828,1.828,0,0,1,51.763,52.1Z" transform="translate(14.656 20.277)"/>
    <path id="Path_426" data-name="Path 426" class="cls-5" d="M76.408,60.5H37.6a1.636,1.636,0,0,1-1.7-1.7h0a1.636,1.636,0,0,1,1.7-1.7H76.408a1.636,1.636,0,0,1,1.7,1.7h0A1.636,1.636,0,0,1,76.408,60.5Z" transform="translate(14.656 23.774)"/>
    <path id="Path_427" data-name="Path 427" class="cls-5" d="M76.408,66.2H37.6a1.636,1.636,0,0,1-1.7-1.7h0a1.636,1.636,0,0,1,1.7-1.7H76.408a1.636,1.636,0,0,1,1.7,1.7h0A1.722,1.722,0,0,1,76.408,66.2Z" transform="translate(14.656 26.147)"/>
    <path id="Path_428" data-name="Path 428" class="cls-5" d="M61.536,71.4H37.6a1.636,1.636,0,0,1-1.7-1.7h0A1.636,1.636,0,0,1,37.6,68H61.536a1.636,1.636,0,0,1,1.7,1.7h0A1.636,1.636,0,0,1,61.536,71.4Z" transform="translate(14.656 28.312)"/>
    <path id="Path_429" data-name="Path 429" class="cls-6" d="M129,52.6" transform="translate(53.419 21.9)"/>
    <path id="Path_430" data-name="Path 430" class="cls-7" d="M25.541,32.923h0A1.875,1.875,0,0,1,23.7,31.082V25.841A1.875,1.875,0,0,1,25.541,24h0a1.875,1.875,0,0,1,1.841,1.841v5.241A1.785,1.785,0,0,1,25.541,32.923Z" transform="translate(9.576 9.993)"/>
    <path id="Path_431" data-name="Path 431" class="cls-7" d="M13.3,37.054h0A2.008,2.008,0,0,1,15,34.929l5.241-.425a2.008,2.008,0,0,1,2.125,1.7h0a2.008,2.008,0,0,1-1.7,2.125l-5.241.425A1.845,1.845,0,0,1,13.3,37.054Z" transform="translate(5.242 14.36)"/>
    <path id="Path_432" data-name="Path 432" class="cls-7" d="M16.656,27.456h0a1.97,1.97,0,0,1,2.691,0l3.683,3.683a1.97,1.97,0,0,1,0,2.691h0a1.97,1.97,0,0,1-2.691,0l-3.683-3.683A1.968,1.968,0,0,1,16.656,27.456Z" transform="translate(6.422 11.21)"/>
    <path id="Path_433" data-name="Path 433" class="cls-7" d="M127.641,9.065h0a1.875,1.875,0,0,0,1.841-1.841V1.841A1.875,1.875,0,0,0,127.641,0h0A1.875,1.875,0,0,0,125.8,1.841V7.082A1.908,1.908,0,0,0,127.641,9.065Z" transform="translate(52.086)"/>
    <path id="Path_434" data-name="Path 434" class="cls-7" d="M141.569,13.154h0a2.008,2.008,0,0,0-1.7-2.125l-5.241-.425a2.008,2.008,0,0,0-2.125,1.7h0a2.008,2.008,0,0,0,1.7,2.125l5.241.425A2.008,2.008,0,0,0,141.569,13.154Z" transform="translate(54.871 4.409)"/>
    <path id="Path_435" data-name="Path 435" class="cls-7" d="M137.63,3.556h0a1.97,1.97,0,0,0-2.691,0l-3.683,3.683a1.97,1.97,0,0,0,0,2.691h0a1.97,1.97,0,0,0,2.691,0l3.683-3.683A1.968,1.968,0,0,0,137.63,3.556Z" transform="translate(54.137 1.259)"/>
    <circle id="Ellipse_301" data-name="Ellipse 301" class="cls-8" cx="2.408" cy="2.408" r="2.408" transform="translate(0.7 88.239)"/>
    <path id="Path_436" data-name="Path 436" class="cls-8" d="M129.313,66.66l-3.824,2.974a.74.74,0,0,0,.142,1.275L129.6,72.75c.425.283.991-.142.991-.708V67.085C130.588,66.519,129.88,66.235,129.313,66.66Z" transform="translate(51.831 27.669)"/>
    <path id="Path_437" data-name="Path 437" class="cls-9" d="M47.616,6.533,44.075,9.365c-.425.283-.283.991.142,1.275l3.4,1.7c.425.283.991-.142.991-.708V7.1C48.749,6.533,48.041,6.249,47.616,6.533Z" transform="translate(17.953 2.674)"/>
    <g id="Group_490" data-name="Group 490" transform="translate(168.291 130.057)">
      <path id="Path_438" data-name="Path 438" class="cls-7" d="M119.556,102.412h0a1.63,1.63,0,0,1,0-2.408l7.648-7.648a1.63,1.63,0,0,1,2.408,0h0a1.63,1.63,0,0,1,0,2.408l-7.648,7.648A1.915,1.915,0,0,1,119.556,102.412Z" transform="translate(-119.025 -91.825)"/>
      <path id="Path_439" data-name="Path 439" class="cls-7" d="M129.612,102.412h0a1.63,1.63,0,0,1-2.408,0l-7.648-7.648a1.63,1.63,0,0,1,0-2.408h0a1.63,1.63,0,0,1,2.408,0L129.612,100A1.628,1.628,0,0,1,129.612,102.412Z" transform="translate(-119.025 -91.825)"/>
    </g>
    <g id="Group_491" data-name="Group 491" transform="translate(200.867 117.027)">
      <path id="Path_440" data-name="Path 440" class="cls-5" d="M142.273,86.414l-.142-.142a.632.632,0,0,1,0-.708l2.833-2.833a.632.632,0,0,1,.708,0l.142.142a.632.632,0,0,1,0,.708l-2.833,2.833A.632.632,0,0,1,142.273,86.414Z" transform="translate(-142.025 -82.625)"/>
      <path id="Path_441" data-name="Path 441" class="cls-5" d="M145.814,86.272l-.142.142a.632.632,0,0,1-.708,0l-2.833-2.833a.632.632,0,0,1,0-.708l.142-.142a.632.632,0,0,1,.708,0l2.833,2.833A.643.643,0,0,1,145.814,86.272Z" transform="translate(-142.025 -82.625)"/>
    </g>
    <g id="Group_492" data-name="Group 492" transform="translate(8.419 134.342)">
      <path id="Path_442" data-name="Path 442" class="cls-7" d="M6.362,99.028h0a.685.685,0,0,1,0-.991l3.116-2.974a.685.685,0,0,1,.991,0h0a.685.685,0,0,1,0,.991L7.354,99.028A.685.685,0,0,1,6.362,99.028Z" transform="translate(-6.15 -94.85)"/>
      <path id="Path_443" data-name="Path 443" class="cls-7" d="M10.428,99.028h0a.685.685,0,0,1-.991,0L6.462,96.054a.685.685,0,0,1,0-.991h0a.685.685,0,0,1,.991,0l2.974,2.974A.685.685,0,0,1,10.428,99.028Z" transform="translate(-6.108 -94.85)"/>
    </g>
    <path id="Path_444" data-name="Path 444" class="cls-7" d="M20.391,113.733H17.416A1.419,1.419,0,0,1,16,112.316h0a1.419,1.419,0,0,1,1.416-1.416h2.974a1.419,1.419,0,0,1,1.416,1.416h0A1.523,1.523,0,0,1,20.391,113.733Z" transform="translate(6.37 46.174)"/>
    <path id="Path_445" data-name="Path 445" class="cls-7" d="M72.591,109.633H69.616a1.419,1.419,0,0,1-1.416-1.416h0a1.419,1.419,0,0,1,1.416-1.416h2.974a1.419,1.419,0,0,1,1.416,1.416h0A1.419,1.419,0,0,1,72.591,109.633Z" transform="translate(28.104 44.467)"/>
    <path id="Path_446" data-name="Path 446" class="cls-7" d="M73.319,109.633h-27.9A1.419,1.419,0,0,1,44,108.216h0a1.419,1.419,0,0,1,1.416-1.416h27.9a1.419,1.419,0,0,1,1.416,1.416h0A1.419,1.419,0,0,1,73.319,109.633Z" transform="translate(18.028 44.467)"/>
    <path id="Path_447" data-name="Path 447" class="cls-7" d="M121.595,113.733H23.016a1.419,1.419,0,0,1-1.416-1.416h0a1.419,1.419,0,0,1,1.416-1.416h98.579a1.419,1.419,0,0,1,1.416,1.416h0A1.523,1.523,0,0,1,121.595,113.733Z" transform="translate(8.702 46.174)"/>
    <path id="Path_448" data-name="Path 448" class="cls-10" d="M60.748,98.1s-1.133,12.747-14.589,13.6c-5.949-.283-3.966,5.807-3.966,5.807" transform="translate(17.144 40.845)"/>
    <path id="Path_449" data-name="Path 449" class="cls-10" d="M76.1,98.1s1.133,12.747,14.589,13.6c5.949-.283,3.966,5.807,3.966,5.807" transform="translate(31.393 40.845)"/>
    <path id="Path_450" data-name="Path 450" class="cls-11" d="M153.981,28.213V61.355a18.467,18.467,0,0,1-18.413,18.413h-32.01L85.43,93.224v-13.6A18.413,18.413,0,0,1,69,61.355V28.213A18.467,18.467,0,0,1,87.413,9.8h48.156A18.467,18.467,0,0,1,153.981,28.213Z" transform="translate(28.437 4.08)"/>
    <path id="Path_451" data-name="Path 451" class="cls-12" d="M119.01,45.812a24.32,24.32,0,0,1-6.657-.991,1.718,1.718,0,0,0-1.841.425L106.4,49.352A28.643,28.643,0,0,1,93.94,36.888l4.107-4.107a1.784,1.784,0,0,0,.425-1.841,21.385,21.385,0,0,1-1.133-6.8A1.875,1.875,0,0,0,95.5,22.3H88.841A1.875,1.875,0,0,0,87,24.141a31.976,31.976,0,0,0,32.01,32.01,1.875,1.875,0,0,0,1.841-1.841V47.653A1.708,1.708,0,0,0,119.01,45.812Z" transform="translate(35.932 9.285)"/>
  </g>
</svg>
