<svg width="285px" height="230px" viewBox="0 0 285 230" version="1.1" xmlns="http://www.w3.org/2000/svg" xmlns:xlink="http://www.w3.org/1999/xlink">
    <!-- Generator: Sketch 51.2 (57519) - http://www.bohemiancoding.com/sketch -->
    <title>Logo</title>
    <desc>Created with Sketch.</desc>
    <defs></defs>
    <g id="Page-1" stroke="none" stroke-width="1" fill="none" fill-rule="evenodd">
        <g id="Logo" transform="translate(-7.000000, 0.000000)">
            <path d="M57.3607337,65.5567886 C66.469208,59.001375 76.4090322,53.7580132 86.9031061,49.9728765 C90.1784302,48.7268255 92.3938097,46.2843693 92.4654276,43.4269714 L92.4654276,20.5690142 C123.412872,13.3225538 155.551653,13.3225538 186.499098,20.5690142 L186.57549,43.4784561 C186.433448,46.2843693 188.641666,48.7255996 191.93012,49.9716507 C202.422163,53.7572787 212.359808,59.0010681 221.465927,65.5567886 C225.389393,68.4147994 231.813516,68.4147994 235.736982,65.5567886 L260.704166,47.3747406 C264.633003,44.5185685 264.633003,39.8414335 260.704166,36.9852615 C193.711017,-11.7952152 85.1162402,-11.7933765 18.1207045,36.9852615 C14.1942546,39.8426594 14.2049973,44.5167298 18.1207045,47.3735147 L43.0872917,65.554337 C47.0167256,68.4123478 53.4372679,68.4147994 57.3607337,65.5567886 Z" id="ring" fill="#22A851"></path>
            <path d="M10.125,199.271351 C10.0781248,197.865094 10.1718738,196.728387 10.40625,195.861195 C10.6406262,194.994003 11.1210901,194.33776 11.8476562,193.892445 C12.5742224,193.44713 13.5937434,193.154164 14.90625,193.013539 C16.2187566,192.872913 17.9531142,192.802601 20.109375,192.802601 C22.2656358,192.802601 24.0703052,192.872913 25.5234375,193.013539 C26.9765698,193.154164 28.1367144,193.44713 29.0039062,193.892445 C29.8710981,194.33776 30.480467,194.994003 30.8320312,195.861195 C31.1835955,196.728387 31.3359377,197.865094 31.2890625,199.271351 L31.0078125,207.638539 C30.914062,209.607298 31.0664043,211.247907 31.4648438,212.560414 C31.8632832,213.87292 32.5195267,214.915878 33.4335938,215.68932 C34.3476608,216.462761 35.5312427,217.013537 36.984375,217.341664 C38.4375073,217.66979 40.1953022,217.833851 42.2578125,217.833851 C44.367198,217.833851 46.1601489,217.66979 47.6367188,217.341664 C49.1132886,217.013537 50.2968705,216.462761 51.1875,215.68932 C52.0781295,214.915878 52.7109356,213.87292 53.0859375,212.560414 C53.4609394,211.247907 53.6484375,209.607298 53.6484375,207.638539 L53.578125,203.068226 C53.578125,201.427593 53.5078132,199.939327 53.3671875,198.603382 C53.2265618,197.267438 52.933596,196.060419 52.4882813,194.982289 C52.0429665,193.904158 51.3867231,192.94323 50.5195312,192.099476 C49.6523394,191.255722 48.4453202,190.505729 46.8984375,189.849476 L22.5,179.443226 C19.8281116,178.271345 17.6015714,176.958858 15.8203125,175.505726 C14.0390536,174.052594 12.621099,172.388548 11.5664062,170.513539 C10.5117135,168.638529 9.75000234,166.529175 9.28125,164.185414 C8.81249766,161.841652 8.53125047,159.216678 8.4375,156.310414 L7.734375,132.474476 C7.64062453,128.958833 8.21483754,125.747928 9.45703125,122.841664 C10.699225,119.935399 12.7031112,117.451049 15.46875,115.388539 C18.2343888,113.326028 21.7851346,111.720576 26.1210938,110.572132 C30.4570529,109.423689 35.6718445,108.849476 41.765625,108.849476 C47.8594055,108.849476 53.0741971,109.423689 57.4101562,110.572132 C61.7461154,111.720576 65.2851425,113.326028 68.0273438,115.388539 C70.769545,117.451049 72.7734312,119.935399 74.0390625,122.841664 C75.3046938,125.747928 75.8906255,128.958833 75.796875,132.474476 L75.09375,160.599476 C75.0468748,162.005733 74.8359394,163.14244 74.4609375,164.009632 C74.0859356,164.876824 73.4531295,165.533068 72.5625,165.978382 C71.6718705,166.423697 70.4882886,166.716663 69.0117188,166.857289 C67.5351489,166.997914 65.7187608,167.068226 63.5625,167.068226 C61.359364,167.068226 59.5195386,166.997914 58.0429688,166.857289 C56.5663989,166.716663 55.382817,166.423697 54.4921875,165.978382 C53.601558,165.533068 52.9687519,164.876824 52.59375,164.009632 C52.2187481,163.14244 52.0078127,162.005733 51.9609375,160.599476 L51.1171875,130.294789 C51.0703123,128.232278 50.8359396,126.59167 50.4140625,125.372914 C49.9921854,124.154157 49.3945351,123.216667 48.6210938,122.560414 C47.8476524,121.90416 46.8867245,121.470571 45.7382812,121.259632 C44.589838,121.048694 43.2656325,120.943226 41.765625,120.943226 C40.2656175,120.943226 38.941412,121.048694 37.7929688,121.259632 C36.6445255,121.470571 35.6835976,121.90416 34.9101562,122.560414 C34.1367149,123.216667 33.5390646,124.154157 33.1171875,125.372914 C32.6953104,126.59167 32.4609377,128.232278 32.4140625,130.294789 L31.640625,158.349476 C31.5937498,160.130735 31.6757802,161.689313 31.8867188,163.025257 C32.0976573,164.361202 32.4960908,165.544783 33.0820312,166.576039 C33.6679717,167.607294 34.4531201,168.521347 35.4375,169.318226 C36.4218799,170.115105 37.6874923,170.84166 39.234375,171.497914 L62.015625,181.060414 C64.5000124,182.091669 66.5742104,183.204939 68.2382812,184.400257 C69.9023521,185.595576 71.2265576,187.036968 72.2109375,188.724476 C73.1953174,190.411985 73.8632795,192.427589 74.2148438,194.771351 C74.566408,197.115113 74.6484384,199.974459 74.4609375,203.349476 L74.3203125,207.286976 C74.226562,210.333866 73.5703186,213.193213 72.3515625,215.865101 C71.1328064,218.536989 69.2343879,220.868997 66.65625,222.861195 C64.0781121,224.853392 60.7851763,226.423689 56.7773438,227.572132 C52.7695112,228.720576 47.9297159,229.294789 42.2578125,229.294789 C36.5859091,229.294789 31.7461138,228.708857 27.7382812,227.536976 C23.7304487,226.365095 20.4492315,224.771361 17.8945312,222.755726 C15.339831,220.740091 13.4531311,218.372927 12.234375,215.654164 C11.0156189,212.9354 10.3828127,210.052616 10.3359375,207.005726 L10.125,199.271351 Z" id="S" fill="#FAF9F5"></path>
            <path d="M98.5138889,219.728208 C98.5138889,217.540698 98.7482615,215.77509 99.2170139,214.431333 C99.6857662,213.087577 100.451384,211.821964 101.513889,210.634458 L144.638889,152.603208 C146.013896,150.9157 147.201384,149.384465 148.201389,148.009458 C149.201394,146.634452 149.998261,145.196966 150.592014,143.696958 C151.185767,142.196951 151.607638,140.571967 151.857639,138.821958 C152.10764,137.07195 152.201389,134.978221 152.138889,132.540708 L151.107639,98.6032085 C151.045139,95.915695 150.732642,93.7438417 150.170139,92.0875835 C149.607636,90.4313252 148.810769,89.1813377 147.779514,88.3375835 C146.748259,87.4938292 145.467022,86.9313349 143.935764,86.6500835 C142.404506,86.3688321 140.638899,86.2282085 138.638889,86.2282085 C136.638879,86.2282085 134.873272,86.3688321 133.342014,86.6500835 C131.810756,86.9313349 130.529519,87.4938292 129.498264,88.3375835 C128.467009,89.1813377 127.685767,90.4313252 127.154514,92.0875835 C126.623261,93.7438417 126.326389,95.915695 126.263889,98.6032085 L125.138889,138.353208 C125.076389,140.228218 124.795141,141.743828 124.295139,142.900083 C123.795136,144.056339 122.982645,144.93133 121.857639,145.525083 C120.732633,146.118836 119.232648,146.509458 117.357639,146.696958 C115.48263,146.884459 113.170153,146.978208 110.420139,146.978208 C107.670125,146.978208 105.388898,146.884459 103.576389,146.696958 C101.76388,146.509458 100.326394,146.118836 99.2638889,145.525083 C98.2013836,144.93133 97.4357662,144.056339 96.9670139,142.900083 C96.4982615,141.743828 96.2326392,140.228218 96.1701389,138.353208 L93.3576389,99.3532085 C93.2326383,94.665685 94.154504,90.4626021 96.1232639,86.7438335 C98.0920237,83.0250649 101.01387,79.8844713 104.888889,77.3219585 C108.763908,74.7594456 113.529486,72.7907153 119.185764,71.4157085 C124.842042,70.0407016 131.326352,69.3532085 138.638889,69.3532085 C145.763925,69.3532085 152.107611,70.0407016 157.670139,71.4157085 C163.232667,72.7907153 167.92012,74.7594456 171.732639,77.3219585 C175.545158,79.8844713 178.435754,83.0250649 180.404514,86.7438335 C182.373274,90.4626021 183.29514,94.665685 183.170139,99.3532085 L181.107639,139.290708 C181.045139,141.415719 180.810766,143.400074 180.404514,145.243833 C179.998262,147.087593 179.373268,148.88445 178.529514,150.634458 C177.68576,152.384467 176.607645,154.13445 175.295139,155.884458 C173.982632,157.634467 172.420148,159.446949 170.607639,161.321958 L127.763889,210.634458 L127.763889,211.384458 L172.857639,211.384458 C174.482647,211.384458 175.748259,211.571957 176.654514,211.946958 C177.560768,212.32196 178.232637,212.86883 178.670139,213.587583 C179.107641,214.306337 179.373263,215.150079 179.467014,216.118833 C179.560764,217.087588 179.607639,218.165703 179.607639,219.353208 C179.607639,221.103217 179.560764,222.571953 179.467014,223.759458 C179.373263,224.946964 179.107641,225.915705 178.670139,226.665708 C178.232637,227.415712 177.560768,227.962582 176.654514,228.306333 C175.748259,228.650085 174.482647,228.821958 172.857639,228.821958 L105.263889,228.821958 C103.888882,228.821958 102.763893,228.743834 101.888889,228.587583 C101.013885,228.431333 100.326391,228.118836 99.8263889,227.650083 C99.3263864,227.181331 98.9826398,226.540713 98.7951389,225.728208 C98.607638,224.915704 98.5138889,223.853215 98.5138889,222.540708 L98.5138889,219.728208 Z" id="2" fill="#22A851"></path>
            <path d="M200.535094,115.458851 C200.488219,114.240095 200.65228,113.25573 201.027282,112.505726 C201.402284,111.755722 202.070246,111.169791 203.031188,110.747914 C203.99213,110.326036 205.304617,110.033071 206.968688,109.869007 C208.632759,109.704944 210.753831,109.622914 213.331969,109.622914 C215.675731,109.622914 217.644461,109.681507 219.238219,109.798695 C220.831977,109.915883 222.132745,110.1151 223.140563,110.396351 C224.148381,110.677602 224.92181,111.076036 225.460875,111.591664 C225.999941,112.107291 226.386656,112.740097 226.621032,113.490101 L246.167907,173.255726 L246.941344,173.255726 L266.206969,113.490101 C266.39447,112.740097 266.746029,112.107291 267.261657,111.591664 C267.777284,111.076036 268.527277,110.677602 269.511657,110.396351 C270.496037,110.1151 271.738212,109.915883 273.238219,109.798695 C274.738227,109.681507 276.589771,109.622914 278.792907,109.622914 C281.558546,109.622914 283.785086,109.704944 285.472594,109.869007 C287.160103,110.033071 288.47259,110.326036 289.410094,110.747914 C290.347599,111.169791 290.968686,111.755722 291.273375,112.505726 C291.578065,113.25573 291.706969,114.240095 291.660094,115.458851 L288.566344,223.669789 C288.519469,224.747919 288.402283,225.603379 288.214782,226.236195 C288.027281,226.86901 287.617129,227.349474 286.984313,227.677601 C286.351497,228.005728 285.449163,228.216663 284.277282,228.310414 C283.105401,228.404164 281.511667,228.451039 279.496032,228.451039 C277.527272,228.451039 275.945256,228.404164 274.749938,228.310414 C273.55462,228.216663 272.652285,228.005728 272.042907,227.677601 C271.433529,227.349474 271.023377,226.86901 270.812438,226.236195 C270.601499,225.603379 270.496032,224.747919 270.496032,223.669789 L270.988219,147.943226 L270.074157,147.943226 L253.902282,204.122914 C253.62103,205.013543 253.328065,205.740098 253.023375,206.302601 C252.718686,206.865104 252.285097,207.298693 251.722594,207.603382 C251.160091,207.908071 250.39838,208.107288 249.437438,208.201039 C248.476496,208.294789 247.199165,208.341664 245.605407,208.341664 C244.19915,208.341664 243.074161,208.28307 242.230407,208.165882 C241.386653,208.048694 240.71869,207.837759 240.2265,207.53307 C239.734311,207.228381 239.347596,206.80651 239.066344,206.267445 C238.785093,205.72838 238.503846,205.013543 238.222594,204.122914 L222.261657,147.943226 L221.347594,147.943226 L221.699157,223.669789 C221.699157,224.747919 221.593689,225.603379 221.38275,226.236195 C221.171812,226.86901 220.749941,227.349474 220.117125,227.677601 C219.48431,228.005728 218.581975,228.216663 217.410094,228.310414 C216.238213,228.404164 214.644479,228.451039 212.628844,228.451039 C210.613209,228.451039 209.019475,228.404164 207.847594,228.310414 C206.675713,228.216663 205.773379,228.005728 205.140563,227.677601 C204.507747,227.349474 204.097595,226.86901 203.910094,226.236195 C203.722593,225.603379 203.605407,224.747919 203.558532,223.669789 L200.535094,115.458851 Z" id="M" fill="#FAF9F5"></path>
        </g>
    </g>
</svg>