{
  "metadata": {
    "name": "Virtual Room Common Icons",
    "lastOpened": 0,
    "created": 1577112871021
  },
  "iconSets": [
    {
      "selection": [
        {
          "order": 1,
          "id": 1,
          "prevSize": 24,
          "code": 59703,
          "name": "delete",
          "tempChar": ""
        },
        {
          "order": 1,
          "id": 0,
          "prevSize": 24,
          "code": 59700,
          "name": "content_copy",
          "tempChar": ""
        }
      ],
      "id": 4,
      "metadata": {
        "name": "Material Icons (subset)",
        "licenseURL": "http://www.apache.org/licenses/LICENSE-2.0.txt",
        "license": "Apache License Version 2.0",
        "designer": "Google",
        "designerURL": "https://www.google.com/design",
        "url": "https://material.io/tools/icons/",
        "iconsHash": 2043722960,
        "importSize": {
          "width": 24,
          "height": 24
        }
      },
      "height": 1024,
      "prevSize": 32,
      "icons": [
        {
          "id": 1,
          "paths": [
            "M810 170v86h-596v-86h148l44-42h212l44 42h148zM256 810v-512h512v512q0 34-26 60t-60 26h-340q-34 0-60-26t-26-60z"
          ],
          "attrs": [{}],
          "isMulticolor": false,
          "isMulticolor2": false,
          "tags": ["delete"],
          "grid": 24
        },
        {
          "id": 0,
          "paths": [
            "M810 896v-598h-468v598h468zM810 214q34 0 60 25t26 59v598q0 34-26 60t-60 26h-468q-34 0-60-26t-26-60v-598q0-34 26-59t60-25h468zM682 42v86h-512v598h-84v-598q0-34 25-60t59-26h512z"
          ],
          "attrs": [{}],
          "isMulticolor": false,
          "isMulticolor2": false,
          "tags": ["content_copy"],
          "grid": 24
        }
      ],
      "invisible": false,
      "colorThemes": []
    },
    {
      "selection": [
        {
          "order": 1,
          "id": 1,
          "name": "download",
          "prevSize": 28,
          "code": 59701,
          "tempChar": ""
        },
        {
          "order": 1,
          "id": 0,
          "name": "eye",
          "prevSize": 28,
          "code": 59702,
          "tempChar": ""
        }
      ],
      "id": 3,
      "metadata": {
        "name": "Font Awesome (subset)",
        "url": "https://github.com/FortAwesome/Font-Awesome",
        "designer": "Dave Gandy",
        "designerURL": "https://github.com/davegandy",
        "license": "Custom",
        "licenseURL": "https://github.com/FortAwesome/Font-Awesome#license",
        "iconsHash": 309851062,
        "importSize": {
          "width": 26,
          "height": 28
        }
      },
      "height": 1024,
      "prevSize": 32,
      "icons": [
        {
          "id": 1,
          "paths": [
            "M731.429 768c0-20-16.571-36.571-36.571-36.571s-36.571 16.571-36.571 36.571 16.571 36.571 36.571 36.571 36.571-16.571 36.571-36.571zM877.714 768c0-20-16.571-36.571-36.571-36.571s-36.571 16.571-36.571 36.571 16.571 36.571 36.571 36.571 36.571-16.571 36.571-36.571zM950.857 640v182.857c0 30.286-24.571 54.857-54.857 54.857h-841.143c-30.286 0-54.857-24.571-54.857-54.857v-182.857c0-30.286 24.571-54.857 54.857-54.857h265.714l77.143 77.714c21.143 20.571 48.571 32 77.714 32s56.571-11.429 77.714-32l77.714-77.714h265.143c30.286 0 54.857 24.571 54.857 54.857zM765.143 314.857c5.714 13.714 2.857 29.714-8 40l-256 256c-6.857 7.429-16.571 10.857-25.714 10.857s-18.857-3.429-25.714-10.857l-256-256c-10.857-10.286-13.714-26.286-8-40 5.714-13.143 18.857-22.286 33.714-22.286h146.286v-256c0-20 16.571-36.571 36.571-36.571h146.286c20 0 36.571 16.571 36.571 36.571v256h146.286c14.857 0 28 9.143 33.714 22.286z"
          ],
          "attrs": [{}],
          "width": 951,
          "isMulticolor": false,
          "isMulticolor2": false,
          "tags": ["download"],
          "grid": 14
        },
        {
          "id": 0,
          "paths": [
            "M950.857 548.571c-54.286-84-128.571-156-217.714-201.714 22.857 38.857 34.857 83.429 34.857 128.571 0 141.143-114.857 256-256 256s-256-114.857-256-256c0-45.143 12-89.714 34.857-128.571-89.143 45.714-163.429 117.714-217.714 201.714 97.714 150.857 255.429 256 438.857 256s341.143-105.143 438.857-256zM539.429 329.143c0-14.857-12.571-27.429-27.429-27.429-95.429 0-173.714 78.286-173.714 173.714 0 14.857 12.571 27.429 27.429 27.429s27.429-12.571 27.429-27.429c0-65.143 53.714-118.857 118.857-118.857 14.857 0 27.429-12.571 27.429-27.429zM1024 548.571c0 14.286-4.571 27.429-11.429 39.429-105.143 173.143-297.714 289.714-500.571 289.714s-395.429-117.143-500.571-289.714c-6.857-12-11.429-25.143-11.429-39.429s4.571-27.429 11.429-39.429c105.143-172.571 297.714-289.714 500.571-289.714s395.429 117.143 500.571 289.714c6.857 12 11.429 25.143 11.429 39.429z"
          ],
          "attrs": [{}],
          "isMulticolor": false,
          "isMulticolor2": false,
          "tags": ["eye"],
          "grid": 14
        }
      ],
      "invisible": false,
      "colorThemes": []
    },
    {
      "selection": [
        {
          "order": 106,
          "id": 0,
          "name": "construct",
          "prevSize": 32,
          "code": 59699,
          "tempChar": ""
        }
      ],
      "id": 2,
      "metadata": {
        "name": "Untitled Set",
        "importSize": {
          "width": 512,
          "height": 512
        }
      },
      "height": 1024,
      "prevSize": 32,
      "icons": [
        {
          "id": 0,
          "paths": [
            "M550.2 115.2c-18.8-11.8-46.6-19.2-75.8-19.2-28.6 0-60.6 5-93.4 18.4-93 38-148 90.8-162.2 104.8-14 14-33.6 36-45.8 53.2-12.2 17.4 3.8 42-12.2 58s-49.4 0-49.4 0c-2.8 0-5.8 1-7.8 3.2l-68.2 67.8c-4.4 4.2-4.4 11.4 0 15.6l127 126.2c2.2 2.2 5 3.2 7.8 3.2s5.8-1 7.8-3.2l66.4-69.6c4.4-4.2 4.4-11.4 0-15.6 0 0-10.6-10.4-24.2-24s1.6-38.6 10.6-46.8c9-8.2 23.2-13.6 42.2-13.6 8.6 0 14.8 1.4 22.8 3.6 24.4 6.8 51.6 31.8 101.8 81.6l-7.8 13c-4.6 7.6-1.8 16.6 2.6 20.8 0 0-10-9.8 26.2 26.2l100-94.4c-38.2-37.8-29-28.2-29-28.2-2.8-2.8-7.6-4.6-12.6-4.6-2.8 0-5.8 0.6-8.4 2l-11.2 6c-56-55.6-70.6-80.4-68.6-123.4 2.2-44.8 24.6-74.2 61-105.4 49.4-42.2 121.2-30.4 121.2-30.4 16-0.2-8.4-17.2-20.8-25.2zM925 799.8s-137.8-114.4-260.4-231.4l-95.4 101.2c117 121.2 229.8 255.2 229.8 255.2 2.2 2.2 5 3.2 7.8 3.2s5.8-1 7.8-3.2l110.2-109.4c4.4-4.2 4.4-11.4 0.2-15.6z",
            "M958.4 250.6l-104.8 105.2-102.2-18.6-18.4-102.2 104.8-105.2c-22.2-22.2-53.6-33.2-78-33.2-1.4 0-2.8 0-4 0.2-25 1.2-78.4 15.4-119.8 59.4-40 42.2-82.2 121.2-44.8 208.6 4.4 10.6 9.4 24.4-5.4 39.4-3 2.8-19.8 18.8-45 42.6-7.2 6.8-14.8 14-23.2 22-16 15.2-34.2 32.4-53.6 50.4-7.6 7.2-15.4 14.4-23.2 22-114 107.6-253.8 239-253.8 239-36 31-33.4 88.2-0.2 121.6 17 16.8 40 25.6 62.6 25.6 22 0 43.8-8.4 59-26.2 0 0 131-139.6 238.6-253.8 7.4-8 14.8-15.6 22-23.4 18.6-19.8 36-38.2 51.6-54.6 7.8-8.4 15.2-16.2 22-23.2 23-24.4 38.6-40.8 42-44 8-7.8 15.4-10.2 22.2-10.2 6.6 0 12.4 2.4 17.2 4.8 19.8 10.2 42 14.6 64.8 14.6 53.4 0 110-24.8 144.2-59 48.8-48.8 57.6-95.8 59.2-120 1.2-23.6-7.2-55.2-33.8-81.8zM274.8 852.2c-11 10.8-28.8 10.8-39.6 0-10.8-11-10.8-28.8 0-39.6 11-10.8 28.8-10.8 39.6 0 10.8 11 10.8 28.8 0 39.6z"
          ],
          "attrs": [{}, {}],
          "isMulticolor": false,
          "isMulticolor2": false,
          "grid": 0,
          "tags": ["f"]
        }
      ],
      "invisible": false
    },
    {
      "icons": [
        {
          "paths": [
            "M482.816 484.736h55.91v167.654h-55.872z",
            "M482.816 289.088h55.91v139.738h-55.872z",
            "M723.046 463.923c-26.68-82.656-55.244-151.973-88.419-218.59l4.092 9.080c-24.307-45.082-63.974-105.062-127.949-105.062h-167.654v55.872h71.002c-10.858 14.257-21.152 30.341-30.106 47.244l-0.922 1.908c-28.822 57.48-57.065 126.735-80.252 198.266l-3.076 10.976c-29.79 93.367-62.453 172.229-100.73 247.766l4.346-9.455v-496.666h83.866v-55.91h-83.866v-113.664h-55.872v744.73c-20.788 23.34-50.492 38.353-83.717 39.66l-0.226 0.007h-27.84v55.91h111.744v113.664h55.91v-113.664h279.475v55.91h55.872v-55.91h450.893v-55.91h-29.722c-111.398 0-178.022-189.197-236.851-356.122zM203.379 802.304c67.162-79.603 112.55-215.002 149.184-320.333 25.305-79.484 52.376-146.084 83.832-210.142l-3.96 8.926c27.187-50.765 52.8-75.456 78.413-75.456 25.574 0 51.264 24.73 78.72 75.648 27.737 55.209 55.118 121.912 77.75 190.769l3.082 10.831c39.936 113.549 89.818 260.736 166.31 337.536h-297.984v-111.859h-55.872v111.782h-279.475v-17.664z"
          ],
          "attrs": [{}, {}, {}],
          "isMulticolor": false,
          "isMulticolor2": false,
          "grid": 24,
          "tags": ["d-graph"],
          "id": 1
        },
        {
          "paths": [
            "M512 128c-247.4 0-448 200.4-448 447.8 0 114 42.6 218 112.6 297 2.2 2.4 4.2 4.8 6.4 7 9.6 10.2 23 16.2 37 16.2 14.2 0 27.6-6 37.2-16.4 63.2-68.8 154-111.8 254.8-111.8s191.6 43.2 254.8 111.8c9.6 10.4 23 16.4 37.2 16.4 14 0 27.4-5.8 37-16.2 2.2-2.4 4.2-4.6 6.4-7 70-79 112.6-183 112.6-297 0-247.4-200.6-447.8-448-447.8zM484 219.8c0-15.4 12.6-28 28-28s28 12.6 28 28v72c0 15.4-12.6 28-28 28s-28-12.6-28-28v-72zM228 603.8h-72c-15.4 0-28-12.6-28-28s12.6-28 28-28h72c15.4 0 28 12.6 28 28s-12.6 28-28 28zM331 394.8c-10.8 10.8-28.8 10.8-39.6 0l-51-50.8c-10.8-10.8-10.8-28.8 0-39.6s28.8-10.8 39.6 0l51 51c10.8 10.8 10.8 28.6 0 39.4zM652.2 463.8l-95 151c-3.8 5.2-8.6 10.2-14 14-27 19.4-64.6 13-84-14s-13-64.6 14-84l151-95c6.8-4.8 16.2-5 23.4 0 9 6.4 11 19 4.6 28zM732.6 394.8c-10.8 10.8-28.8 10.8-39.6 0s-10.8-28.8 0-39.6l51-51c10.8-10.8 28.8-10.8 39.6 0s10.8 28.8 0 39.6l-51 51zM868 603.8h-72c-15.4 0-28-12.6-28-28s12.6-28 28-28h72c15.4 0 28 12.6 28 28s-12.6 28-28 28z"
          ],
          "attrs": [{}],
          "isMulticolor": false,
          "isMulticolor2": false,
          "grid": 24,
          "tags": ["icon"],
          "id": 2
        },
        {
          "paths": ["M384 690l452-452 60 60-512 512-238-238 60-60z"],
          "attrs": [{}],
          "isMulticolor": false,
          "isMulticolor2": false,
          "tags": ["check"],
          "grid": 24,
          "id": 3
        },
        {
          "paths": [
            "M810 128c46 0 86 40 86 86v596c0 46-40 86-86 86h-596c-46 0-86-40-86-86v-596c0-46 40-86 86-86h596zM810 214h-596v596h596v-596z"
          ],
          "attrs": [{}],
          "isMulticolor": false,
          "isMulticolor2": false,
          "tags": ["check_box_outline_blank"],
          "grid": 24,
          "id": 4
        },
        {
          "paths": [
            "M426 726l384-384-60-62-324 324-152-152-60 60zM810 128c48 0 86 40 86 86v596c0 46-38 86-86 86h-596c-48 0-86-40-86-86v-596c0-46 38-86 86-86h596z"
          ],
          "attrs": [{}],
          "isMulticolor": false,
          "isMulticolor2": false,
          "tags": ["check_box"],
          "grid": 24,
          "id": 5
        },
        {
          "paths": [
            "M0 662.674h250.734v361.326h376.32v-361.326h250.661l-438.857-421.595-438.857 421.595zM877.714 120.539v-120.539h-877.714v120.539h877.714z"
          ],
          "attrs": [{}],
          "width": 878,
          "isMulticolor": false,
          "isMulticolor2": false,
          "grid": 24,
          "tags": ["upload"],
          "colorPermutations": {
            "2322322321432061141": [{}]
          },
          "id": 6
        },
        {
          "paths": [
            "M405.333 85.333h170.667c11.733 0 21.333-7.595 21.333-17.067v-43.605c0-18.901-19.115-24.661-42.667-24.661h-128c-23.552 0-42.667 5.803-42.667 24.619v43.648c0 9.429 9.557 17.067 21.333 17.067z",
            "M637.44 101.845c0 30.123-30.763 54.613-68.651 54.613h-156.331c-37.845 0-68.608-24.491-68.608-54.613v-16.512h-343.851v662.784c0 40.192 43.947 72.832 98.133 72.832h267.691l-184.576 125.013c-20.053 13.568-21.419 36.608-3.157 51.456 9.685 7.851 22.955 11.819 36.267 11.819 0.232 0.003 0.506 0.005 0.781 0.005 11.993 0 23.16-3.534 32.517-9.618l-0.231 0.141 194.176-131.584v119.381c0 20.139 21.973 36.437 49.067 36.437s49.067-16.299 49.067-36.437v-125.141l201.685 137.387c20.053 13.525 51.072 12.416 69.291-2.517 18.219-14.805 16.768-37.888-3.285-51.413l-183.637-124.928h259.413c54.187 0 98.133-32.64 98.133-72.832v-662.784h-343.893v16.512zM883.2 748.117h-785.067v-482.432h785.067v482.432z"
          ],
          "attrs": [],
          "width": 981,
          "isMulticolor": false,
          "isMulticolor2": false,
          "grid": 24,
          "tags": ["presentation"],
          "colorPermutations": {},
          "id": 7
        },
        {
          "paths": [
            "M887.893 4.693h-794.453c-51.537 0.169-93.271 41.903-93.44 93.424l-0 0.016v619.179c0.169 51.537 41.903 93.271 93.424 93.44l0.016 0h303.787l-93.483 105.173v70.101h373.845v-70.101l-93.44-105.131h303.744c51.537-0.169 93.271-41.903 93.44-93.424l0-0.016v-619.221c-0.169-51.537-41.903-93.271-93.424-93.44l-0.016-0zM887.893 635.52h-794.453v-537.387h794.453v537.387z",
            "M490.667 367.36c52.951-0.169 95.831-43.049 96-95.984l0-0.016c-0.169-52.951-43.049-95.831-95.984-96l-0.016-0c-52.951 0.169-95.831 43.049-96 95.984l-0 0.016c0.169 52.951 43.049 95.831 95.984 96l0.016 0zM490.667 415.36c-63.573 0-192 32.427-192 96v48h384v-48c0-63.573-128.427-96-192-96z"
          ],
          "attrs": [{}, {}],
          "width": 981,
          "isMulticolor": false,
          "isMulticolor2": false,
          "grid": 24,
          "tags": ["conference"],
          "colorPermutations": {
            "2322322321432061141": [{}, {}]
          },
          "id": 8
        },
        {
          "paths": [
            "M804.571 341.333h-48.762v-97.524c0-134.095-109.714-243.81-243.81-243.81s-243.81 109.714-243.81 243.81h92.643c0-82.905 68.274-151.167 151.167-151.167 82.905 0 151.167 68.262 151.167 151.167h-0.005v97.524h-443.733c-53.643 0-97.524 43.881-97.524 97.524v487.619c0 53.643 43.881 97.524 97.524 97.524h585.142c53.643 0 97.524-43.881 97.524-97.524v-487.619c0-53.643-43.881-97.524-97.524-97.524zM512 785.067c-53.643 0-97.524-43.881-97.524-97.524s43.881-97.524 97.524-97.524 97.524 43.881 97.524 97.524-43.881 97.524-97.524 97.524z"
          ],
          "attrs": [{}],
          "isMulticolor": false,
          "isMulticolor2": false,
          "grid": 24,
          "tags": ["unlock"],
          "colorPermutations": {
            "2322322321432061141": [{}]
          },
          "id": 9
        },
        {
          "paths": [
            "M767.962 512c141.364 0 255.962-114.598 255.962-255.962s-114.598-255.962-255.962-255.962c-141.364 0-255.962 114.598-255.962 255.962v0c0.434 141.189 114.773 255.528 255.92 255.962l0.042 0zM767.962 639.981c-169.569 0-512 86.393-512 255.962v127.981h1024v-127.828c0-169.722-342.431-256.115-512-256.115zM255.962 426.679v-170.718h-85.321v170.641h-170.641v85.321h170.641v170.641h85.321v-170.565h170.641v-85.321z"
          ],
          "attrs": [
            {
              "fill": "rgb(232, 232, 232)"
            }
          ],
          "width": 1280,
          "isMulticolor": false,
          "isMulticolor2": false,
          "grid": 24,
          "tags": ["add-participant"],
          "colorPermutations": {
            "2322322321432061141": [
              {
                "f": 1
              }
            ]
          },
          "id": 10
        },
        {
          "paths": [
            "M780.264 109.627h-199.696c-16.867-63.57-73.889-109.655-141.675-109.655s-124.808 46.085-141.444 108.633l-0.231 1.022h-199.696c-53.803 0.179-97.368 43.76-97.522 97.552l-0 0.015v719.284c0.179 53.788 43.734 97.343 97.505 97.522l0.017 0h682.742c53.788-0.179 97.343-43.734 97.522-97.505l0-0.017v-719.284c-0.154-53.807-43.718-97.388-97.504-97.567l-0.017-0zM438.915 109.627c0.013-0 0.029-0 0.045-0 26.942 0 48.783 21.841 48.783 48.783s-21.841 48.783-48.783 48.783c-26.942 0-48.783-21.841-48.783-48.783 0-0.016 0-0.032 0-0.048l-0 0.003c0.102-26.876 21.862-48.636 48.728-48.738l0.010-0zM786.362 932.576h-694.938v-731.48h91.424v164.599h512.090v-164.599h91.424z",
            "M552.879 517.782c-6.634-6.619-15.792-10.712-25.905-10.712s-19.271 4.093-25.906 10.713l0.001-0.001-120.423 120.468-47.248-47.338c-6.688-7.089-16.146-11.502-26.634-11.502-20.207 0-36.588 16.381-36.588 36.588 0 10.488 4.413 19.946 11.484 26.617l0.018 0.017 73.13 73.13c6.555 6.639 15.656 10.751 25.718 10.751 0.042 0 0.084-0 0.126-0l-0.007 0c0.003 0 0.007 0 0.011 0 10.093 0 19.235-4.072 25.873-10.662l-0.002 0.002 146.305-146.305c6.641-6.624 10.75-15.785 10.75-25.905 0-10.098-4.091-19.24-10.705-25.86l0 0z"
          ],
          "attrs": [
            {
              "fill": "rgb(232, 232, 232)"
            },
            {
              "fill": "rgb(232, 232, 232)"
            }
          ],
          "width": 878,
          "isMulticolor": false,
          "isMulticolor2": false,
          "grid": 24,
          "tags": ["assets"],
          "colorPermutations": {
            "2322322321432061141": [
              {
                "f": 1
              },
              {
                "f": 1
              }
            ]
          },
          "id": 11
        },
        {
          "paths": [
            "M780.264 109.627h-199.696c-16.867-63.57-73.889-109.655-141.675-109.655s-124.808 46.085-141.444 108.633l-0.231 1.022h-199.696c-53.803 0.179-97.368 43.76-97.522 97.552l-0 0.015v719.284c0.179 53.788 43.734 97.343 97.505 97.522l0.017 0h682.742c53.788-0.179 97.343-43.734 97.522-97.505l0-0.017v-719.284c-0.154-53.807-43.718-97.388-97.504-97.567l-0.017-0zM438.915 109.627c0.013-0 0.029-0 0.045-0 26.942 0 48.783 21.841 48.783 48.783s-21.841 48.783-48.783 48.783c-26.942 0-48.783-21.841-48.783-48.783 0-0.016 0-0.032 0-0.048l-0 0.003c0.102-26.876 21.862-48.636 48.728-48.738l0.010-0zM786.362 932.576h-694.938v-731.48h91.424v164.599h512.090v-164.599h91.424z"
          ],
          "attrs": [
            {
              "fill": "rgb(232, 232, 232)"
            }
          ],
          "width": 878,
          "isMulticolor": false,
          "isMulticolor2": false,
          "grid": 24,
          "tags": ["notepad"],
          "colorPermutations": {
            "2322322321432061141": [
              {
                "f": 1
              }
            ]
          },
          "id": 12
        },
        {
          "paths": [
            "M362.018 736.227l-225.132-224.228 224.906-224.228-68.556-68.33-293.236 292.559 293.552 292.559zM661.892 736.227l224.906-224.228-224.906-224.228 68.556-68.33 293.552 292.559-293.552 292.559-68.556-68.33z"
          ],
          "attrs": [
            {
              "fill": "rgb(232, 232, 232)"
            }
          ],
          "grid": 24,
          "tags": ["code"],
          "isMulticolor": false,
          "isMulticolor2": false,
          "colorPermutations": {
            "2322322321432061141": [
              {
                "f": 1
              }
            ]
          },
          "id": 13
        },
        {
          "paths": [
            "M269.533 617.746c-0.442-0.005-0.964-0.007-1.487-0.007-87.797 0-159.072 70.74-159.935 158.332l-0.001 0.082c-1.401 58.62-49.254 105.605-108.079 105.605-0.010 0-0.020 0-0.031 0h0.002c51.017 63.777 128.414 104.611 215.389 105.83l0.202 0.002c0.629 0.007 1.373 0.010 2.117 0.010 117.128 0 212.226-94.326 213.473-211.159l0.001-0.118c-0.801-87.756-72.126-158.587-159.994-158.587-0.582 0-1.164 0.003-1.744 0.009l0.088-0.001zM1008.427 122.723l-72.262-70.897c-9.79-9.542-23.183-15.427-37.952-15.427s-28.162 5.885-37.964 15.438l0.011-0.011-483.074 473.458 147.938 145.15 482.847-473.231c9.883-9.438 16.029-22.717 16.029-37.432 0-14.493-5.961-27.593-15.564-36.983l-0.009-0.009z"
          ],
          "attrs": [
            {
              "fill": "rgb(232, 232, 232)"
            }
          ],
          "grid": 24,
          "tags": ["brush"],
          "isMulticolor": false,
          "isMulticolor2": false,
          "colorPermutations": {
            "2322322321432061141": [
              {
                "f": 1
              }
            ]
          },
          "id": 14
        },
        {
          "paths": [
            "M0 819.183h204.775v204.817h136.352v-341.333h-341.127v136.517zM204.775 204.775h-204.775v136.352h341.333v-341.127h-136.352l-0.207 204.775zM682.667 1024h136.352v-204.817h204.817v-136.352h-341.168v341.168zM819.018 204.817v-204.817h-136.352v341.333h341.333v-136.352l-204.982-0.165z"
          ],
          "attrs": [{}],
          "isMulticolor": false,
          "isMulticolor2": false,
          "grid": 24,
          "tags": ["import"],
          "colorPermutations": {
            "2322322321432061141": [{}]
          },
          "id": 15
        },
        {
          "paths": [
            "M887.467 887.467h-204.8v136.533h341.333v-341.333h-136.533z",
            "M887.467 136.533v204.8h136.533v-341.333h-341.333v136.533z",
            "M136.533 136.533h204.8v-136.533h-341.333v341.333h136.533z",
            "M136.533 887.467v-204.8h-136.533v341.333h341.333v-136.533z"
          ],
          "attrs": [{}, {}, {}, {}],
          "isMulticolor": false,
          "isMulticolor2": false,
          "grid": 24,
          "tags": ["import"],
          "colorPermutations": {
            "2322322321432061141": [{}, {}, {}, {}]
          },
          "id": 16
        },
        {
          "paths": [
            "M560 864h-384c-44.2 0-80-35.8-80-80v-544c0-44.2 35.8-80 80-80h384c44.2 0 80 35.8 80 80 0 8.8-7.2 16-16 16s-16-7.2-16-16c0-26.4-21.6-48-48-48h-384c-26.4 0-48 21.6-48 48v544c0 26.4 21.6 48 48 48h384c26.4 0 48-21.6 48-48 0-8.8 7.2-16 16-16s16 7.2 16 16c0 44.2-35.8 80-80 80zM918.6 493.4l-169.2-168.8c-6.2-6.2-16.4-6.2-22.6 0s-6.2 16.4 0 22.6l151.2 148.8h-542c-8.8 0-16 7.2-16 16s7.2 16 16 16h542l-147.4 148.8c-6.2 6.2-6.2 16.4 0 22.6 3.2 3 7.2 4.6 11.4 4.6s8.2-1.4 11.4-4.6l165.2-164.8c12.6-12.6 12.6-28.8 0-41.2z"
          ],
          "attrs": [{}],
          "isMulticolor": false,
          "isMulticolor2": false,
          "grid": 24,
          "tags": ["import"],
          "colorPermutations": {
            "2322322321432061141": [{}]
          },
          "id": 17
        },
        {
          "paths": [
            "M596.224 12.32c-194.073 0-356.413 131.073-394.48 305.6-5.561 25.515-8.56 51.552-8.56 78.72 0 212.227 173.618 388.8 396.24 388.8 36.348 0 83.186-10.499 109.28-17.6 26.085-7.096 51.52-16.404 58.32-18.96 5.639-2.124 11.994-3.28 18.24-3.28 7.114 0 13.721 1.33 19.76 3.84l0.242 0.16 128.88 45.28c0.311 0.127 1.448 0.598 3.36 1.2 2.142 0.675 4.652 1.52 8.16 1.52 14.294 0 26.4-11.706 26.4-26.24 0-5.004-1.52-8.4-1.52-8.4l-36.72-129.44c0.106-8.18 2.293-16.010 6.24-22.72l0.082-0.16v-0.082c0.89-1.62 2.519-3.609 4.32-6.16v-0.082l0.082-0.082c40.348-59.805 64-131.415 64-207.84 0.696-212.198-179.811-384.080-402.32-384.080zM596.224 28.64c214.085 0 386.665 164.882 386 367.76 0 73.043-22.66 141.395-61.28 198.64-1.376 1.94-3.309 4.383-5.12 7.68-5.408 9.279-8.48 20.044-8.48 31.36v1.12l0.242 1.12 37.28 131.28v0.082c0 0 0.8 4.182 0.8 3.68 0 5.725-4.325 9.84-10 9.84 0.102 0-1.768-0.27-3.2-0.72-1.432-0.451-2.48-0.88-2.48-0.88l-0.242-0.082-128.4-45.2c-0.024-0.010-0.057 0.010-0.082 0-8.011-3.319-16.803-5.12-26-5.12-8.277 0-16.478 1.567-24 4.4-6.361 2.391-31.681 11.545-56.88 18.4-25.19 6.855-71.87 17.040-104.96 17.040-213.972 0-379.84-169.096-379.84-372.4 0-25.955 2.909-50.823 8.24-75.28 36.365-166.717 191.704-292.72 378.402-292.72z",
            "M191.024 281.92l-39.92 35.76c-77.77 68.344-122.4 165.847-122.4 267.52 0 70.029 20.128 137.599 58.8 196.16 2.502 3.841 4.392 7.12 5.36 9.44 0.975 2.335 0.836 3.521 0.96 2.96-0.522 2.368-2.169 10.858-4.8 24.64s-6.048 31.755-9.44 49.6c-6.784 35.691-13.44 70.8-13.44 70.8-1.968 9.735 1.784 19.516 8.96 25.76l0.080 0.082 0.16 0.082c4.933 3.976 10.952 6 16.96 6 3.42 0 6.857-0.637 10.080-2.080l129.68-51.524c3.338-1.308 6.702-2 10.24-2h0.72c0 0 3.237-0.458 10.88 2.48 44.669 17.621 94.161 28.64 143.84 28.64 110.44 0 214.284-48.053 284.72-131.68l0.242-0.242 0.16-0.242c0 0 7.472-10.291 16.080-22.48l14.8-21.040-24.24 8.56c-8.362 2.96-17.937 5.972-27.44 8.48l1.28 4.8-1.36-4.8c-8.106 2.268-18.735 4.81-30.24 7.36-24.090 5.083-54.893 10.32-77.040 10.32-218.699 0-388.4-175.623-388.4-386.88 0-14.821 1.624-34.225 3.44-48.88v-0.080c1.37-9.894 2.976-19.634 5.198-29.037v-0.16c2.27-10.289 5.027-20.581 8-30.72zM160.064 332.4c-0.338 1.455-0.799 2.863-1.12 4.32l0.080-0.080c-2.41 10.198-4.111 20.471-5.52 30.64v0.16c-1.891 15.243-3.52 34.965-3.52 50.96 0 220.043 177.236 403.28 404.72 403.28 24.675 0 55.961-5.527 80.56-10.72h0.082c11.622-2.576 22.312-5.127 30.88-7.52 0.045-0.013 0.115-0.066 0.16-0.082 1.772-0.469 3.357-1.025 5.12-1.52-0.16 0.225-1.488 2.116-1.52 2.16-0.002 0.003-0.16 0.078-0.16 0.082-67.312 79.836-166.447 125.76-272.080 125.76-47.257 0-94.77-10.482-137.76-27.44h-0.080v-0.082c-10.146-3.931-17.646-3.454-17.92-3.44-5.613 0.045-10.93 1.116-15.84 3.040l-130.48 51.762c-0.951 0.426-2.141 0.72-3.36 0.72-2.257 0-4.507-0.806-6.48-2.32-2.964-2.614-4.373-6.318-3.6-10.080v-0.082c0 0 6.657-35.194 13.44-70.88 3.391-17.843 6.81-35.827 9.44-49.6s4.778-24.425 4.72-24.16c1.051-4.767-0.206-8.885-1.84-12.8s-3.912-7.856-6.72-12.16h-0.080c-36.929-55.922-56.16-120.236-56.16-187.12 0-95.863 42.179-187.617 115.040-252.8z"
          ],
          "attrs": [{}, {}],
          "isMulticolor": false,
          "isMulticolor2": false,
          "grid": 24,
          "tags": ["import"],
          "colorPermutations": {
            "2322322321432061141": [{}, {}]
          },
          "id": 18
        },
        {
          "paths": [
            "M333.28 176.16c-77.993 0-142.24 61.086-142.24 136.16 0 75.076 64.247 136.16 142.24 136.16s142.24-61.084 142.24-136.16c0-75.074-64.247-136.16-142.24-136.16zM690.72 176.16c-77.993 0-142.24 61.086-142.24 136.16 0 75.076 64.247 136.16 142.24 136.16s142.24-61.084 142.24-136.16c0-75.074-64.247-136.16-142.24-136.16zM333.28 192.48c69.459 0 125.84 54.126 125.84 119.84 0 65.716-56.381 119.84-125.84 119.84s-125.84-54.124-125.84-119.84c0-65.713 56.381-119.84 125.84-119.84zM690.72 192.48c69.459 0 125.84 54.127 125.84 119.84 0 65.715-56.381 119.84-125.84 119.84s-125.84-54.124-125.84-119.84c0-65.714 56.381-119.84 125.84-119.84zM333.28 526c-53.783 0-132.449 12.343-198.72 37.6-33.135 12.629-63.195 28.463-85.44 48.16s-36.8 43.863-36.8 71.76v123.36h648.32v-123.36c0-27.984-15.15-52.165-38-71.84s-53.6-35.462-87.52-48.080c-67.841-25.236-148.060-37.6-201.84-37.6zM333.28 542.4c51.228 0 130.589 12.198 196.080 36.56 32.746 12.181 62.053 27.394 82.64 45.12s32.24 37.288 32.24 59.44v107.040h-615.6v-107.040c0-22.239 11.366-41.816 31.36-59.52s48.466-32.949 80.4-45.12c63.869-24.342 141.649-36.48 192.88-36.48zM690.72 549.44c-13.396 0-23.289 0.055-39.36 2.24l-20.64 2.8 16.96 12c25.406 17.927 41.99 32.225 52.16 49.040s14.64 36.803 14.64 68v123.36h297.2v-123.36c0-27.897-14.783-50.887-37.2-68.4s-52.538-30.358-85.68-40c-66.285-19.285-144.908-25.68-198.080-25.68zM690.72 565.84c51.842 0 129.665 6.462 193.52 25.040 31.927 9.289 60.338 21.634 80.16 37.12s30.96 33.281 30.96 55.52v107.040h-264.48v-107.040c0-32.803-4.953-56.496-17.040-76.48-9.002-14.883-25.652-27.197-42.24-40.16 5.896-0.276 12.235-1.040 19.12-1.040z"
          ],
          "attrs": [{}],
          "isMulticolor": false,
          "isMulticolor2": false,
          "grid": 24,
          "tags": ["import"],
          "colorPermutations": {
            "2322322321432061141": [{}]
          },
          "id": 19
        },
        {
          "paths": [
            "M992.056 202.218l-186.905-186.658c-9.824-9.824-25.693-9.824-35.517 0l-649.633 648.391c-3.527 3.023-6.045 6.801-7.557 11.084l-94.712 282.884c-4.534 13.099 2.771 27.457 15.869 31.991 5.29 1.763 10.831 1.763 15.869 0l283.128-94.714c4.282-1.511 8.061-4.030 11.083-7.557l648.374-649.902c9.824-9.824 9.824-25.694 0-35.518zM81.461 926.179l65.744-196.482 130.733 130.736-196.477 65.746zM324.538 835.495l-152.396-152.4 456.683-455.939 151.64 151.644-455.927 456.695zM815.983 343.282l-151.388-151.644 122.924-122.675 151.136 151.14-122.672 123.179z"
          ],
          "attrs": [{}],
          "isMulticolor": false,
          "isMulticolor2": false,
          "grid": 24,
          "tags": ["import"],
          "colorPermutations": {
            "2322322321432061141": [{}]
          },
          "id": 20
        },
        {
          "paths": [
            "M837.197 120.461h-136.594v-88.762c0-17.866-14.411-31.699-32.276-31.699-1.734 0-2.89 0.579-3.454 1.156-0.579-0.577-1.735-1.156-2.312-1.156h-325.641c-17.865 0-31.698 13.833-31.698 31.699v88.763h-137.171c-39.199 0-69.742 30.543-69.742 69.742v114.117h60.519v649.546c0 39.2 29.966 69.164 69.164 69.164h549.264c39.199 0 69.74-29.964 69.74-69.164v-649.546h59.942v-114.117c0-39.199-30.555-69.743-69.742-69.743zM368.619 63.397h268.011v57.064h-268.011v-57.064zM783.023 953.869c0 4.044-1.734 5.765-5.766 5.765h-549.264c-4.033 0-5.766-1.722-5.766-5.765v-649.549h560.797v649.549zM842.965 240.923h-680.681v-50.72c0-4.034 1.734-6.345 5.766-6.345h669.148c4.034 0 5.767 2.311 5.767 6.345v50.72z",
            "M618.763 378.673h63.974v524.476h-63.974z",
            "M471.214 378.673h63.974v524.476h-63.974z",
            "M323.664 378.673h63.974v524.476h-63.974z"
          ],
          "attrs": [{}, {}, {}, {}],
          "isMulticolor": false,
          "isMulticolor2": false,
          "grid": 24,
          "tags": ["import"],
          "colorPermutations": {
            "2322322321432061141": [{}, {}, {}, {}]
          },
          "id": 21
        },
        {
          "paths": [
            "M56.606 420.92l273.246 273.234c75.473 75.483 197.752 75.483 273.231 0l91.075-91.085-91.075-91.064-91.081 91.064c-25.158 25.109-65.977 25.16-91.085 0l-273.227-273.223c-25.096-25.128-25.096-65.981 0-91.115l91.075-91.074c25.109-25.092 65.977-25.092 91.088 0l97.546 97.563c45.222-26.614 96.618-38.028 147.503-34.6l-153.985-154.037c-75.473-75.443-197.811-75.443-273.227 0l-91.085 91.074c-75.473 75.447-75.473 197.821 0.002 273.264zM596.662 778.825l97.493 97.486c25.158 25.16 65.977 25.098 91.075 0l91.081-91.074c25.158-25.106 25.158-65.928 0-91.085l-273.231-273.234c-25.102-25.092-65.987-25.092-91.081 0l-91.085 91.085-91.064-91.085 91.064-91.074c75.483-75.443 197.762-75.443 273.239 0l273.237 273.225c75.479 75.494 75.479 197.832 0 273.242l-91.079 91.077c-75.42 75.483-197.756 75.483-273.231 0l-153.974-153.98c50.88 3.392 102.142-8.037 147.556-34.583z"
          ],
          "attrs": [{}],
          "isMulticolor": false,
          "isMulticolor2": false,
          "grid": 24,
          "tags": ["import"],
          "colorPermutations": {
            "2322322321432061141": [{}]
          },
          "id": 22
        },
        {
          "paths": [
            "M853.332 661.334c-53.332 0-104.542-8.542-151.458-23.458-14.938-4.272-32-2.146-42.664 10.666l-93.878 93.856c-121.604-61.856-219.728-160-281.604-281.606l93.878-93.854c10.664-10.666 14.924-27.728 10.664-42.666-17.074-49.062-25.604-100.272-25.604-153.606 0-23.458-19.198-42.666-42.666-42.666h-149.334c-23.468 0-42.666 19.208-42.666 42.666 0 401.062 324.272 725.334 725.332 725.334 23.46 0 42.668-19.208 42.668-42.666v-149.334c0-23.458-19.208-42.666-42.668-42.666z"
          ],
          "attrs": [{}],
          "isMulticolor": false,
          "isMulticolor2": false,
          "grid": 24,
          "tags": ["import"],
          "colorPermutations": {
            "2322322321432061141": [{}]
          },
          "id": 23
        },
        {
          "paths": [
            "M640 128.12c0.038-51.798-31.134-98.514-78.972-118.354s-102.915-8.892-139.534 27.734c-36.619 36.626-47.564 91.714-27.729 139.562s66.543 79.025 118.331 78.987c70.533-0.257 127.647-57.383 127.904-127.929zM640 895.977c0-70.705-57.307-128.023-127.998-128.023s-127.998 57.318-127.998 128.023c0 70.705 57.307 128.023 127.998 128.023 70.606-0.206 127.792-57.403 127.998-128.023zM640 512.002c-0-51.789-31.196-98.477-79.037-118.287s-102.903-8.84-139.503 27.794c-36.6 36.634-47.528 91.714-27.686 139.55s66.543 79.004 118.322 78.966c70.569-0.257 127.699-57.44 127.904-128.023z"
          ],
          "attrs": [],
          "isMulticolor": false,
          "isMulticolor2": false,
          "tags": ["import"],
          "defaultCode": 59662,
          "grid": 24,
          "colorPermutations": {
            "2322322321432061141": []
          },
          "id": 24
        },
        {
          "paths": [
            "M768.005 696.321l-71.68 71.673-184.325-184.322-184.322 184.322-71.682-71.673 184.327-184.322-184.327-184.322 71.682-71.67 184.322 184.315 184.322-184.315 71.68 71.67-184.325 184.322 184.327 184.322zM512-0.001c-284.162 0-512 227.84-512 512 0 284.153 227.838 512 512 512 284.148 0 512-227.847 512-512 0-284.16-227.85-512-512-512z"
          ],
          "attrs": [],
          "isMulticolor": false,
          "isMulticolor2": false,
          "tags": ["import"],
          "defaultCode": 59663,
          "grid": 24,
          "colorPermutations": {
            "2322322321432061141": []
          },
          "id": 25
        },
        {
          "paths": [
            "M967.394 420.92l-273.246 273.234c-75.473 75.483-197.752 75.483-273.231 0l-91.075-91.085 91.075-91.064 91.081 91.064c25.158 25.109 65.977 25.16 91.085 0l273.227-273.223c25.096-25.128 25.096-65.981 0-91.115l-91.075-91.074c-25.109-25.092-65.977-25.092-91.088 0l-97.546 97.563c-45.222-26.614-96.618-38.028-147.503-34.6l153.985-154.037c75.473-75.443 197.811-75.443 273.227 0l91.085 91.074c75.473 75.447 75.473 197.821-0.002 273.264zM427.338 778.825l-97.493 97.486c-25.158 25.16-65.977 25.098-91.075 0l-91.081-91.074c-25.158-25.106-25.158-65.928 0-91.085l273.231-273.234c25.102-25.092 65.987-25.092 91.081 0l91.085 91.085 91.064-91.085-91.064-91.074c-75.483-75.443-197.762-75.443-273.239 0l-273.237 273.225c-75.479 75.494-75.479 197.832 0 273.242l91.079 91.077c75.42 75.483 197.756 75.483 273.231 0l153.974-153.98c-50.88 3.392-102.142-8.037-147.556-34.583z"
          ],
          "attrs": [],
          "isMulticolor": false,
          "isMulticolor2": false,
          "tags": ["import"],
          "defaultCode": 59664,
          "grid": 24,
          "colorPermutations": {
            "2322322321432061141": []
          },
          "id": 26
        },
        {
          "paths": ["M0 981.333l1024-469.333-1024-469.333v365.061l733.524 104.272-733.524 104.326z"],
          "attrs": [],
          "isMulticolor": false,
          "isMulticolor2": false,
          "tags": ["import"],
          "defaultCode": 59665,
          "grid": 24,
          "colorPermutations": {
            "2322322321432061141": []
          },
          "id": 27
        },
        {
          "paths": [
            "M713.697 219.429v536.379c0 107.287-90.754 195.049-201.697 195.049-110.941 0-201.695-87.762-201.695-195.049v-560.759c0-68.263 55.47-121.906 126.059-121.906 70.587 0 126.059 53.643 126.059 121.906v560.761c0 26.809-22.703 48.761-50.426 48.761s-50.423-21.952-50.423-48.761v-463.239h-75.636v463.239c0.002 68.261 55.472 121.904 126.061 121.904s126.061-53.643 126.061-121.904v-560.761c0-107.275-90.754-195.049-201.697-195.049s-201.697 87.774-201.697 195.049v560.759c0.002 148.715 123.551 268.192 277.333 268.192 153.784 0 277.333-119.477 277.333-268.192v-536.379h-75.636z"
          ],
          "attrs": [],
          "isMulticolor": false,
          "isMulticolor2": false,
          "tags": ["import"],
          "defaultCode": 59666,
          "grid": 24,
          "colorPermutations": {
            "2322322321432061141": []
          },
          "id": 28
        },
        {
          "paths": [
            "M733.683 618.566c-38.976 87.040-126.016 142.528-221.376 141.248-96.128 2.176-184.064-53.888-222.72-141.952-6.784-14.528-0.512-31.744 14.016-38.528 14.464-6.784 31.744-0.512 38.528 14.016 0.32 0.768 0.704 1.536 0.96 2.304 29.696 66.368 96.512 108.288 169.216 106.24 72.256 1.28 138.368-40.512 168.192-106.304 6.912-14.4 24.256-20.48 38.656-13.504 13.632 6.528 19.904 22.4 14.528 36.48zM592.115 373.382c0-33.088 26.816-59.904 59.904-59.904s59.904 26.816 59.904 59.904c0 33.088-26.816 59.904-59.904 59.904s-59.904-26.752-59.968-59.84v-0.064h0.064zM320.627 373.382c0-33.088 26.816-59.84 59.904-59.776 33.024 0 59.84 26.88 59.776 59.904 0 33.024-26.816 59.776-59.84 59.776-33.088-0.064-59.84-26.816-59.84-59.904zM818.035 818.374c-169.216 169.152-443.456 169.152-612.672 0-169.152-169.216-169.152-443.52 0-612.672 169.216-169.152 443.456-169.152 612.672 0 168.832 169.28 168.832 443.328-0.064 612.608l0.064 0.064zM873.907 149.83c-200.064-199.872-524.224-199.744-724.096 0.256-199.872 200.064-199.744 524.224 0.256 724.096 199.936 199.744 523.904 199.744 723.84 0 199.68-200.192 199.68-524.16 0-724.352z"
          ],
          "attrs": [],
          "isMulticolor": false,
          "isMulticolor2": false,
          "tags": ["import"],
          "defaultCode": 59667,
          "grid": 24,
          "colorPermutations": {
            "2322322321432061141": []
          },
          "id": 29
        },
        {
          "paths": [
            "M351.573 153.145c-2.214-16.461-10.898-31.362-24.133-41.41s-29.93-14.415-46.395-12.136c-3.070 0.684-6.080 1.611-9.003 2.771l86.101 89.059-6.571-38.284z",
            "M728.661 173.097c4.754-34.616-18.564-66.851-52.949-73.2-34.619-2.622-64.839 23.228-67.584 57.81l-40.661 250.424 119.68 123.634 41.515-358.668z",
            "M532.309 63.915c1.337-22.524-9.93-43.934-29.26-55.599s-43.538-11.666-62.868 0c-19.33 11.666-30.597 33.075-29.26 55.599l-0.555 181.572 135.765 140.346-13.824-321.918z",
            "M409.6 467.602c0.299 4.647-3.456 5.969-4.267 0.682l-13.184-78.188-152.875-159.19 40.917 313.733c0 6.565-2.048 10.317-4.992 1.876l-71.765-202.163c-4.644-15.834-15.509-29.113-30.116-36.808s-31.711-9.151-47.41-4.034c-32.282 13.966-48.348 50.421-36.864 83.645l125.781 433.104c0.64 2.387 1.323 4.775 2.048 7.12l0.256 0.895v0.213c32.778 113.739 136.066 192.74 254.507 194.66 78.34-0.772 154.154-27.795 215.296-76.739 45.498-35.474 87.8-74.86 126.421-117.708l-403.456-420.144-0.299 59.046z",
            "M955.349 551.546c-13.381-16.235-33.139-25.888-54.18-26.468s-41.302 7.968-55.559 23.441l-70.571 74.351 117.291 121.332c39.168-42.633 67.712-75.119 67.712-75.119 30.241-34.095 28.17-85.959-4.693-117.538z",
            "M140.667 72.833l-55.333 53.25 841.083 874.5 55.333-53.25z"
          ],
          "attrs": [],
          "isMulticolor": false,
          "isMulticolor2": false,
          "tags": ["import"],
          "defaultCode": 59668,
          "grid": 24,
          "colorPermutations": {
            "2322322321432061141": []
          },
          "id": 30
        },
        {
          "paths": [
            "M955.136 552c-31.601-33.319-78.117-36.32-109.718-2.999l-90.322 95.232c-23.513 24.768-51.848 24.821-68.389 4.233-10.955-13.641-6.632-55.712-3.562-82.398l45.298-392.798c4.045-35.093-19.649-68.994-52.932-73.259-33.276-4.267-63.531 22.718-67.58 57.803l-49.965 308.519c-2.611 7.675-8.212 9.001-8.842-1.33l-17.006-401.003c0-35.349-27.174-64-60.697-64-33.525 0-60.699 28.651-60.699 64l-1.196 404.005c0.316 4.663-3.475 5.998-4.16 0.672l-54-315.358c-5.958-34.786-37.533-59.893-70.521-53.607-32.99 6.281-54.901 41.57-48.947 76.35l48.085 369.040c0.050 6.565-2.039 10.315-5.001 1.897l-71.736-202.322c-11.223-33.307-45.925-52.72-77.515-40.889-31.588 11.833-48.102 50.425-36.883 83.728l125.757 433.429c0.659 2.391 1.352 4.766 2.065 7.127l0.264 0.891c0.022 0.071 0.052 0.133 0.074 0.201 34.827 113.083 135.557 194.837 254.414 194.837 76.085 0 155.114-28.293 215.273-76.965l0.006-0.005c64.98-41.259 273.156-277.365 273.156-277.365 31.605-33.319 26.882-84.341-4.723-117.666z"
          ],
          "attrs": [],
          "isMulticolor": false,
          "isMulticolor2": false,
          "tags": ["import"],
          "defaultCode": 59669,
          "grid": 24,
          "colorPermutations": {
            "2322322321432061141": []
          },
          "id": 31
        },
        {
          "paths": [
            "M926.481 0h-828.962c-53.796 0.15-97.369 43.723-97.519 97.519v646.11c0.15 53.796 43.723 97.369 97.519 97.519h316.962l-97.519 109.705v73.148h390.076v-73.148l-97.519-109.705h316.962c53.796-0.15 97.369-43.723 97.519-97.519v-646.11c-0.15-53.796-43.723-97.369-97.519-97.519zM926.481 658.295h-828.962v-560.777h828.962v560.777z"
          ],
          "attrs": [],
          "isMulticolor": false,
          "isMulticolor2": false,
          "tags": ["import"],
          "defaultCode": 59670,
          "grid": 24,
          "colorPermutations": {
            "2322322321432061141": []
          },
          "id": 32
        },
        {
          "paths": [
            "M698.181 580.896c-13.954 0-23.6 0-39.895 2.216 53.545 37.782 73.143 62.222 73.143 128.889v120h292.571v-120c0-104.449-216.43-131.104-325.819-131.104zM325.819 556.444c-109.39 0-325.819 51.107-325.819 155.556v120h658.286v-120c0-104.449-223.083-155.556-332.466-155.556zM325.819 458.667c76.798 0 139.634-60.004 139.634-133.333 0-73.327-62.837-133.333-139.634-133.333s-139.639 60.007-139.639 133.333c0 73.329 62.841 133.333 139.639 133.333zM698.181 458.667c76.798 0 139.639-60.004 139.639-133.333 0-73.327-62.841-133.333-139.639-133.333s-139.634 60.007-139.634 133.333c0 73.329 62.837 133.333 139.634 133.333z"
          ],
          "attrs": [],
          "isMulticolor": false,
          "isMulticolor2": false,
          "tags": ["import"],
          "defaultCode": 59671,
          "grid": 24,
          "colorPermutations": {
            "2322322321432061141": []
          },
          "id": 33
        },
        {
          "paths": [
            "M512 646.737c-169.595 0-512 84.889-512 251.509v125.754h1024v-125.754c0-166.619-342.405-251.509-512-251.509zM512 512c140.813 0 256-115.203 256-256s-115.187-256-256-256c-140.813 0-256 115.203-256 256s115.187 256 256 256z"
          ],
          "attrs": [],
          "isMulticolor": false,
          "isMulticolor2": false,
          "tags": ["temp"],
          "defaultCode": 59672,
          "grid": 24,
          "colorPermutations": {
            "2322322321432061141": []
          },
          "id": 34
        },
        {
          "paths": [
            "M932.314 660.51c0-10.315 2.837-20.165 7.8-28.604 1.418-2.582 3.309-4.926 4.964-7.271 41.129-60.963 65.239-133.883 65.239-211.73 0.709-216.185-183.19-391.572-410.583-391.572-198.318 0-363.781 133.885-402.546 311.617-5.673 26.027-8.746 52.522-8.746 80.19 0 216.422 176.808 396.499 404.201 396.499 36.165 0 84.859-10.788 111.569-18.057 26.71-7.266 53.184-16.882 60.039-19.459 6.855-2.582 14.419-3.988 21.983-3.988 8.509 0 16.546 1.644 23.874 4.689l134.025 47.129c0 0 5.673 2.345 9.219 2.345 10.4 0 18.91-8.207 18.91-18.758 0-2.345-1.182-6.328-1.182-6.328l-38.765-136.701z",
            "M670.504 828.654c-8.696 2.434-19.808 5.111-31.887 7.788-25.364 5.354-57.734 10.952-82.133 10.952-232.387 0-413.079-186.912-413.079-411.547 0-16.063 1.691-36.506 3.623-52.082 1.449-10.465 3.14-20.93 5.556-31.152 2.416-10.952 5.314-21.904 8.455-32.612l-19.325 17.28c-79.234 69.605-124.648 168.902-124.648 272.337 0 71.309 20.533 139.941 59.908 199.567 5.556 8.518 8.696 15.089 7.73 19.47s-28.746 150.892-28.746 150.892c-1.449 7.058 1.208 14.116 6.522 18.74 3.623 2.92 7.972 4.381 12.32 4.381 2.416 0 4.831-0.487 7.005-1.46l135.519-53.786c4.348-1.704 8.938-2.677 13.769-2.677 0 0 5.798-0.487 15.219 3.164 45.656 18.010 96.143 29.205 146.631 29.205 112.57 0 218.376-48.918 290.121-134.1 0 0 7.73-10.709 16.668-23.364-8.938 3.164-19.084 6.328-29.23 9.005z"
          ],
          "attrs": [],
          "isMulticolor": false,
          "isMulticolor2": false,
          "tags": ["import"],
          "defaultCode": 59673,
          "grid": 24,
          "colorPermutations": {
            "2322322321432061141": []
          },
          "id": 35
        },
        {
          "paths": [
            "M0 341.355v341.355h227.569l284.429 297.447v-936.249l-284.429 297.447h-227.569zM767.997 512c0.625-99.433-54.359-190.882-142.474-236.96v471.006c88.405-44.281 143.738-135.179 142.474-234.046zM625.782 0v119.937c169.681 55.354 284.496 213.581 284.496 392.063s-114.815 336.708-284.496 392.063v119.937c234.226-59.488 398.218-270.337 398.218-512s-163.992-452.512-398.218-512z"
          ],
          "attrs": [],
          "isMulticolor": false,
          "isMulticolor2": false,
          "tags": ["import"],
          "defaultCode": 59674,
          "grid": 24,
          "colorPermutations": {
            "2322322321432061141": []
          },
          "id": 36
        },
        {
          "paths": [
            "M841.429 486.912h-85.333c0.208 44.931-11.844 89.068-34.859 127.659l58.709 61.269c39.703-55.019 61.201-121.080 61.483-188.928z",
            "M641.152 501.675v-329.856c0.915-54.268-27.513-104.809-74.364-132.21s-104.838-27.401-151.689 0c-46.851 27.401-75.278 77.943-74.364 132.21v44.16l297.771 311.765c1.641-8.596 2.526-17.319 2.645-26.069z",
            "M340.736 501.717c0.187 82.933 67.296 150.157 150.229 150.485 29.667-0.040 58.643-8.956 83.2-25.6l-233.429-243.84v118.955z",
            "M641.664 697.216c-44.705 29.579-97.094 45.42-150.699 45.568-69.176 1.37-136.051-24.861-185.848-72.896s-78.418-113.923-79.539-183.104h-85.12c3.751 170.739 131.176 313.367 300.416 336.256v179.627h100.139v-179.584c57.236-8.893 111.496-31.414 158.208-65.664l-57.557-60.203z",
            "M98.167 73.75l-55.5 53.083 841.083 878.917 55.5-53.083z"
          ],
          "attrs": [],
          "isMulticolor": false,
          "isMulticolor2": false,
          "tags": ["import"],
          "defaultCode": 59675,
          "grid": 24,
          "colorPermutations": {
            "2322322321432061141": []
          },
          "id": 37
        },
        {
          "paths": [
            "M490.837 652.203c82.949-0.328 150.066-67.578 150.229-150.528v-329.856c0.915-54.268-27.513-104.809-74.364-132.21s-104.838-27.401-151.689 0c-46.851 27.401-75.278 77.943-74.364 132.21v329.856c0.164 82.926 67.261 150.157 150.187 150.485v0.043zM756.224 486.912c-1.121 69.181-29.742 135.068-79.539 183.104s-116.672 74.267-185.848 72.896c-69.169 1.359-136.032-24.877-185.82-72.912s-78.403-113.915-79.524-183.088h-85.12c3.813 170.69 131.223 313.247 300.416 336.128v179.627h100.139v-179.584c168.781-23.687 295.778-165.799 300.416-336.171h-85.12z"
          ],
          "attrs": [],
          "isMulticolor": false,
          "isMulticolor2": false,
          "tags": ["import"],
          "defaultCode": 59676,
          "grid": 24,
          "colorPermutations": {
            "2322322321432061141": []
          },
          "id": 38
        },
        {
          "paths": [
            "M95.167 0l-61.667 59 841.083 878.917 61.667-59z",
            "M777.941 408.021v208.043l238.251 129.877v-466.773z",
            "M283.733 201.344h-196.992c-45.796-1.668-84.438 33.762-86.741 79.531v456.789c1.858 46.993 39.734 84.552 86.741 86.016h536.96c45.931-1.826 81.962-40.058 81.067-86.016v-98.475l-421.035-437.845z",
            "M704.683 280.875c0.23-21.431-8.288-42.030-23.587-57.039s-36.057-23.132-57.48-22.492h-234.667l315.52 326.613 0.213-247.083z"
          ],
          "attrs": [],
          "isMulticolor": false,
          "isMulticolor2": false,
          "tags": ["import"],
          "defaultCode": 59677,
          "grid": 24,
          "colorPermutations": {
            "2322322321432061141": []
          },
          "id": 39
        },
        {
          "paths": [
            "M623.709 201.891h-536.948c-45.795-1.688-84.45 33.731-86.761 79.5v456.797c1.837 47.011 39.736 84.585 86.761 86.016h536.948c45.901-1.865 81.888-40.086 80.989-86.016v-456.797c0.211-21.409-8.303-41.981-23.582-56.979s-36.006-23.129-57.407-22.521z",
            "M777.961 408.553v208.058l238.22 129.862v-466.758z"
          ],
          "attrs": [],
          "isMulticolor": false,
          "isMulticolor2": false,
          "tags": ["import"],
          "defaultCode": 59678,
          "grid": 24,
          "colorPermutations": {
            "2322322321432061141": []
          },
          "id": 40
        },
        {
          "paths": [
            "M512 96c-212 0-384 176.4-384 394.2v306.6c0 72.6 57.2 131.4 128 131.4h128v-352.2h-170.6v-85.8c0-169.4 133.6-306.6 298.6-306.6s298.6 137 298.6 306.6v85.8h-170.6v352h128c70.8 0 128-58.6 128-131.4v-306.4c0-217.8-172-394.2-384-394.2z"
          ],
          "attrs": [],
          "isMulticolor": false,
          "isMulticolor2": false,
          "tags": ["import"],
          "defaultCode": 59679,
          "grid": 24,
          "colorPermutations": {
            "2322322321432061141": []
          },
          "id": 41
        },
        {
          "paths": [
            "M876.095 56.889l-364.092 364.095-364.098-364.095-91.016 91.016 364.098 364.092-364.098 364.098 91.016 91.016 364.098-364.095 364.092 364.095 91.016-91.016-364.095-364.098 364.095-364.092z"
          ],
          "attrs": [],
          "isMulticolor": false,
          "isMulticolor2": false,
          "tags": ["import"],
          "defaultCode": 59680,
          "grid": 24,
          "colorPermutations": {
            "2322322321432061141": []
          },
          "id": 42
        },
        {
          "paths": [
            "M512 0c-281.6 0-512 230.4-512 512s230.4 512 512 512 512-230.4 512-512-230.4-512-512-512zM512 153.6c87.040 0 153.6 66.56 153.6 153.6s-66.56 153.6-153.6 153.6c-87.040 0-153.6-66.56-153.6-153.6s66.56-153.6 153.6-153.6zM512 880.64c-128 0-240.64-66.558-307.2-163.84 0-102.4 204.8-158.72 307.2-158.72s307.2 56.32 307.2 158.72c-66.56 97.28-179.2 163.84-307.2 163.84z"
          ],
          "attrs": [{}],
          "isMulticolor": false,
          "isMulticolor2": false,
          "grid": 24,
          "tags": ["icon-user"],
          "colorPermutations": {
            "2322322321432061141": [{}]
          },
          "id": 43
        },
        {
          "paths": ["M342 214l468 298-468 298v-596z"],
          "attrs": [{}],
          "isMulticolor": false,
          "isMulticolor2": false,
          "tags": ["play_arrow"],
          "grid": 24,
          "colorPermutations": {
            "2322322321432061141": [{}]
          },
          "id": 44
        },
        {
          "paths": ["M598 214h170v596h-170v-596zM256 810v-596h170v596h-170z"],
          "attrs": [{}],
          "isMulticolor": false,
          "isMulticolor2": false,
          "tags": ["pause"],
          "grid": 24,
          "colorPermutations": {
            "2322322321432061141": [{}]
          },
          "id": 45
        },
        {
          "paths": ["M316 658l-60-60 256-256 256 256-60 60-196-196z"],
          "attrs": [{}],
          "isMulticolor": false,
          "isMulticolor2": false,
          "tags": ["keyboard_arrow_up"],
          "grid": 24,
          "colorPermutations": {
            "2322322321432061141": [{}]
          },
          "id": 46
        },
        {
          "paths": ["M366 698l196-196-196-196 60-60 256 256-256 256z"],
          "attrs": [{}],
          "isMulticolor": false,
          "isMulticolor2": false,
          "tags": ["keyboard_arrow_right"],
          "grid": 24,
          "colorPermutations": {
            "2322322321432061141": [{}]
          },
          "id": 47
        },
        {
          "paths": ["M658 686l-60 60-256-256 256-256 60 60-196 196z"],
          "attrs": [{}],
          "isMulticolor": false,
          "isMulticolor2": false,
          "tags": ["keyboard_arrow_left"],
          "grid": 24,
          "colorPermutations": {
            "2322322321432061141": [{}]
          },
          "id": 48
        },
        {
          "paths": ["M316 334l196 196 196-196 60 60-256 256-256-256z"],
          "attrs": [{}],
          "isMulticolor": false,
          "isMulticolor2": false,
          "tags": ["keyboard_arrow_down"],
          "grid": 24,
          "colorPermutations": {
            "2322322321432061141": [{}]
          },
          "id": 49
        },
        {
          "paths": [
            "M282.405 380.343c-7.314-34.231 12.581-52.955 33.719-82.432 25.454-35.401 26.258-53.76 1.975-103.863-32.005-63.504-69.218-118.24-112.517-167.495l0.755 0.876c-36.571-36.571-44.544-28.453-64.585-21.358-22.815 9.71-42.258 20.236-60.58 32.324l1.407-0.872c-30.606 17.723-54.924 43.31-70.625 74.033l-0.47 1.012c-14.117 30.427-30.427 87.186 52.736 235.301 46.189 84.153 96.558 156.775 153.519 223.606l-1.528-1.837 115.273-111.397c-16.402-22.304-32.657-47.764-47.249-74.27l-1.83-3.627zM923.575 744.96c-48.494-42.396-103.283-79.618-162.303-109.735l-4.535-2.101c-49.957-23.991-68.389-23.552-103.79 1.975-29.257 21.358-48.567 41.179-82.432 33.719-41.653-22.98-77.561-47.643-110.831-75.364l1.117 0.905-113.957 110.080c74.793 68.252 158.754 128.663 249.25 178.703l6.75 3.423c148.041 83.237 204.8 66.853 235.154 52.736 31.84-15.98 57.457-40.351 74.519-70.235l0.452-0.86c12.288-18.725 22.821-38.546 31.451-59.173 7.534-19.529 15.726-27.648-20.846-64.073z",
            "M944.713 126.537l-66.121-68.023-8.704 8.485 1.755 1.755-869.595 840.119 64.366 66.633 878.299-848.969zM66.999 923.794l-15.214-15.799 825.929-798.281 15.287 15.799-826.002 798.281z",
            "M52.078 907.995l15.214 15.799 825.71-798.135-15.287-15.799z"
          ],
          "attrs": [
            {
              "fill": "rgb(255, 255, 255)"
            },
            {
              "fill": "rgb(255, 255, 255)"
            },
            {
              "fill": "rgb(255, 255, 255)"
            }
          ],
          "width": 951,
          "isMulticolor": false,
          "isMulticolor2": false,
          "grid": 24,
          "tags": ["call"],
          "id": 50
        },
        {
          "paths": [
            "M1020.692 453.159c2.053 4.825 3.246 10.437 3.246 16.328 0 11.768-4.761 22.424-12.463 30.147l0.001-0.001-128 127.921c-7.817 8.389-18.929 13.619-31.263 13.619-23.579 0-42.693-19.114-42.693-42.693 0-12.334 5.23-23.446 13.593-31.239l0.026-0.024 55.138-55.138h-238.356c-22.776-1.009-40.86-19.72-40.86-42.654s18.083-41.644 40.769-42.65l0.091-0.003h238.356l-55.138-55.138c-8.389-7.817-13.619-18.929-13.619-31.263 0-23.579 19.114-42.693 42.693-42.693 12.334 0 23.446 5.23 31.239 13.593l0.024 0.026 128 127.921c3.938 3.938 7.089 8.665 9.216 13.942zM725.307 597.307c23.631 0 42.693 19.141 42.693 42.693v255.921c0 23.631-19.141 42.693-42.693 42.693h-213.307v42.693c-0.024 23.561-19.129 42.651-42.693 42.651-2.955 0-5.839-0.3-8.625-0.872l0.275 0.047-426.693-85.307c-19.676-4.035-34.265-21.208-34.265-41.788 0-0.013 0-0.027 0-0.040l-0 0.002v-853.307c0-0.866 0.551-1.654 0.473-2.521-0.041-0.554-0.065-1.2-0.065-1.851s0.023-1.297 0.070-1.937l-0.005 0.086c0.761-3.773 1.932-7.12 3.493-10.237l-0.106 0.234c0.399-1.451 0.802-2.63 1.265-3.779l-0.083 0.234c2.889-5.346 6.694-9.83 11.25-13.4l0.092-0.070c0.315-0.315-0.158-0.473 0.788-1.024s2.048-0.551 2.993-1.339c5.164-3.317 11.317-5.566 17.93-6.285l0.187-0.017c1.204-0.307 2.702-0.583 4.228-0.769l0.183-0.018h682.614c23.631 0 42.693 19.141 42.693 42.693v256c-1.009 22.776-19.72 40.86-42.654 40.86s-41.644-18.083-42.65-40.769l-0.003-0.091v-213.386h-349.263l148.165 44.505c18.117 5.435 30.405 22.055 30.405 40.881v682.614h170.614v-213.307c0-23.631 19.141-42.693 42.693-42.693z"
          ],
          "attrs": [
            {
              "fill": "rgb(255, 255, 255)"
            }
          ],
          "grid": 24,
          "tags": ["leave"],
          "isMulticolor": false,
          "isMulticolor2": false,
          "id": 51
        }
      ],
      "height": 1024,
      "metadata": {
        "name": "icomoon"
      },
      "preferences": {
        "showGlyphs": true,
        "showCodes": true,
        "showQuickUse": false,
        "showQuickUse2": true,
        "showSVGs": true,
        "fontPref": {
          "prefix": "icon-",
          "metadata": {
            "fontFamily": "icomoon"
          },
          "metrics": {
            "emSize": 1024,
            "baseline": 6.25,
            "whitespace": 50
          },
          "embed": false
        },
        "imagePref": {
          "prefix": "icon-",
          "png": true,
          "useClassSelector": true,
          "color": 0,
          "bgColor": 16777215,
          "name": "icomoon",
          "classSelector": ".icon"
        },
        "historySize": 50,
        "gridSize": 16
      },
      "selection": [
        {
          "order": 96,
          "id": 0,
          "name": "d-graph",
          "prevSize": 24,
          "code": 59696,
          "tempChar": ""
        },
        {
          "order": 91,
          "id": 0,
          "name": "icon",
          "prevSize": 24,
          "code": 59691,
          "tempChar": ""
        },
        {
          "order": 1,
          "id": 2,
          "prevSize": 24,
          "code": 59690,
          "name": "check",
          "tempChar": ""
        },
        {
          "order": 1,
          "id": 1,
          "prevSize": 24,
          "code": 59692,
          "name": "check_box_outline_blank",
          "tempChar": ""
        },
        {
          "order": 2,
          "id": 0,
          "prevSize": 24,
          "code": 59693,
          "name": "check_box",
          "tempChar": ""
        },
        {
          "order": 93,
          "id": 36,
          "name": "upload",
          "prevSize": 24,
          "code": 59694,
          "tempChar": ""
        },
        {
          "order": 94,
          "id": 35,
          "name": "presentation",
          "prevSize": 24,
          "code": 59695,
          "tempChar": ""
        },
        {
          "order": 90,
          "id": 34,
          "name": "conference",
          "prevSize": 24,
          "code": 59689,
          "tempChar": ""
        },
        {
          "order": 86,
          "id": 33,
          "name": "unlock",
          "prevSize": 24,
          "code": 59687,
          "tempChar": ""
        },
        {
          "order": 83,
          "id": 32,
          "name": "addParticipant",
          "prevSize": 24,
          "code": 59688,
          "tempChar": ""
        },
        {
          "order": 76,
          "id": 31,
          "name": "assets",
          "prevSize": 24,
          "code": 59685,
          "tempChar": ""
        },
        {
          "order": 75,
          "id": 30,
          "name": "notepad",
          "prevSize": 24,
          "code": 59686,
          "tempChar": ""
        },
        {
          "order": 71,
          "id": 29,
          "name": "code",
          "prevSize": 24,
          "code": 59684,
          "tempChar": ""
        },
        {
          "order": 74,
          "id": 28,
          "name": "brush",
          "prevSize": 24,
          "code": 59683,
          "tempChar": ""
        },
        {
          "order": 69,
          "id": 27,
          "name": "import8",
          "prevSize": 24,
          "code": 59681,
          "tempChar": ""
        },
        {
          "order": 68,
          "id": 26,
          "name": "import7",
          "prevSize": 24,
          "code": 59682,
          "tempChar": ""
        },
        {
          "order": 67,
          "id": 25,
          "name": "import6",
          "prevSize": 24,
          "code": 59661,
          "tempChar": ""
        },
        {
          "order": 66,
          "id": 24,
          "name": "import5",
          "prevSize": 24,
          "code": 59648,
          "tempChar": ""
        },
        {
          "order": 65,
          "id": 23,
          "name": "import4",
          "prevSize": 24,
          "code": 59649,
          "tempChar": ""
        },
        {
          "order": 64,
          "id": 22,
          "name": "import3",
          "prevSize": 24,
          "code": 59650,
          "tempChar": ""
        },
        {
          "order": 63,
          "id": 21,
          "name": "import2",
          "prevSize": 24,
          "code": 59651,
          "tempChar": ""
        },
        {
          "order": 62,
          "id": 20,
          "name": "import1",
          "prevSize": 24,
          "code": 59659,
          "tempChar": ""
        },
        {
          "order": 61,
          "id": 19,
          "name": "import",
          "prevSize": 24,
          "code": 59660,
          "tempChar": ""
        },
        {
          "order": 60,
          "name": "menu-dotted",
          "prevSize": 24,
          "id": 0,
          "code": 59662,
          "tempChar": ""
        },
        {
          "order": 57,
          "name": "close-rounded",
          "prevSize": 24,
          "id": 1,
          "code": 59663,
          "tempChar": ""
        },
        {
          "order": 56,
          "name": "link",
          "prevSize": 24,
          "id": 2,
          "code": 59664,
          "tempChar": ""
        },
        {
          "order": 55,
          "name": "send",
          "prevSize": 24,
          "id": 3,
          "code": 59665,
          "tempChar": ""
        },
        {
          "order": 54,
          "name": "attachment",
          "prevSize": 24,
          "id": 4,
          "code": 59666,
          "tempChar": ""
        },
        {
          "order": 53,
          "name": "smile",
          "prevSize": 24,
          "id": 5,
          "code": 59667,
          "tempChar": ""
        },
        {
          "order": 77,
          "name": "hand-muted",
          "prevSize": 24,
          "id": 6,
          "code": 59668,
          "tempChar": ""
        },
        {
          "order": 51,
          "name": "hand",
          "prevSize": 24,
          "id": 7,
          "code": 59669,
          "tempChar": ""
        },
        {
          "order": 48,
          "name": "desktop",
          "prevSize": 24,
          "id": 8,
          "code": 59670,
          "tempChar": ""
        },
        {
          "order": 47,
          "name": "users",
          "prevSize": 24,
          "id": 9,
          "code": 59671,
          "tempChar": ""
        },
        {
          "order": 81,
          "name": "user",
          "prevSize": 24,
          "id": 10,
          "code": 59672,
          "tempChar": ""
        },
        {
          "order": 45,
          "name": "messages",
          "prevSize": 24,
          "id": 11,
          "code": 59673,
          "tempChar": ""
        },
        {
          "order": 44,
          "name": "speaker",
          "prevSize": 24,
          "id": 12,
          "code": 59674,
          "tempChar": ""
        },
        {
          "order": 43,
          "name": "mic-muted",
          "prevSize": 24,
          "id": 13,
          "code": 59675,
          "tempChar": ""
        },
        {
          "order": 42,
          "name": "mic",
          "prevSize": 24,
          "id": 14,
          "code": 59676,
          "tempChar": ""
        },
        {
          "order": 41,
          "name": "video-camera-muted",
          "prevSize": 24,
          "id": 15,
          "code": 59677,
          "tempChar": ""
        },
        {
          "order": 40,
          "name": "video-camera",
          "prevSize": 24,
          "id": 16,
          "code": 59678,
          "tempChar": ""
        },
        {
          "order": 39,
          "name": "headset",
          "prevSize": 24,
          "id": 17,
          "code": 59679,
          "tempChar": ""
        },
        {
          "order": 38,
          "name": "close",
          "prevSize": 24,
          "id": 18,
          "code": 59680,
          "tempChar": ""
        },
        {
          "order": 29,
          "id": 0,
          "name": "icon-user",
          "prevSize": 24,
          "code": 59652,
          "tempChar": ""
        },
        {
          "order": 1,
          "id": 5,
          "prevSize": 24,
          "code": 59658,
          "name": "play",
          "tempChar": ""
        },
        {
          "order": 1,
          "id": 4,
          "name": "pause",
          "prevSize": 24,
          "code": 59657,
          "tempChar": ""
        },
        {
          "order": 1,
          "id": 3,
          "prevSize": 24,
          "code": 59653,
          "name": "arrow-up",
          "tempChar": ""
        },
        {
          "order": 2,
          "id": 2,
          "prevSize": 24,
          "code": 59654,
          "name": "arrow-right",
          "tempChar": ""
        },
        {
          "order": 3,
          "id": 1,
          "prevSize": 24,
          "code": 59655,
          "name": "arrow-left",
          "tempChar": ""
        },
        {
          "order": 4,
          "id": 0,
          "prevSize": 24,
          "code": 59656,
          "name": "arrow-down",
          "tempChar": ""
        },
        {
          "order": 104,
          "id": 38,
          "name": "end_call",
          "prevSize": 24,
          "code": 59697,
          "tempChar": ""
        },
        {
          "order": 105,
          "id": 37,
          "name": "leave",
          "prevSize": 24,
          "code": 59698,
          "tempChar": ""
        }
      ],
      "prevSize": 32,
      "id": 1
    }
  ],
  "preferences": {
    "showGlyphs": true,
    "showCodes": true,
    "showQuickUse": false,
    "showQuickUse2": true,
    "showSVGs": true,
    "fontPref": {
      "prefix": "icon-",
      "metadata": {
        "fontFamily": "icomoon"
      },
      "metrics": {
        "emSize": 1024,
        "baseline": 6.25,
        "whitespace": 50
      },
      "embed": false
    },
    "imagePref": {
      "prefix": "icon-",
      "png": true,
      "useClassSelector": true,
      "color": 0,
      "bgColor": 16777215,
      "name": "icomoon",
      "classSelector": ".icon"
    },
    "historySize": 50,
    "gridSize": 16
  },
  "uid": -1
}
